,start_time,end_time,T_in_mean,T_out_mean,tau,T0,tau_variance,T0_variance
0,2017-01-01 20:25:00,2017-01-01 20:35:00,22.444444444444443,1.0185185185185173,1928.3333298548275,21.48150542778916,1.4433779781925322,5.3712241272998905e-05
1,2017-01-01 21:30:00,2017-01-01 21:40:00,22.166666666666668,0.44444444444444287,1955.0000008945615,21.77780139816432,1.4433792699692727,5.29792759279625e-05
2,2017-01-03 05:25:00,2017-01-03 05:35:00,22.277777777777775,3.6296296296296298,1678.333334492139,18.703731206190234,1.4433834182535699,6.171784427289794e-05
3,2017-01-09 22:00:00,2017-01-09 22:10:00,23.0,-2.3888888888888893,2285.0000024205606,25.44446466102024,1.4433808885919412,4.532468843641897e-05
4,2017-01-13 21:30:00,2017-01-13 21:40:00,22.61111111111111,-6.5555555555555545,2624.999998391508,29.2222398253127,1.4433798961800506,3.9451800707175536e-05
5,2017-01-15 20:50:00,2017-01-15 21:00:00,22.666666666666668,-1.2222222222222219,2150.000000359113,23.944465927517292,1.443381471700299,4.817193459301269e-05
6,2017-01-18 04:40:00,2017-01-18 04:50:00,22.555555555555554,1.7777777777777795,1870.000002840155,20.83335802444564,1.443382468144203,5.538872707176963e-05
7,2017-01-20 04:40:00,2017-01-20 04:50:00,22.666666666666668,1.7777777777777795,1880.0000021430542,20.944469004591674,1.4433812409196904,5.5093941527395974e-05
8,2017-01-20 20:10:00,2017-01-20 20:20:00,22.666666666666668,3.7222222222222237,1705.0000005139827,19.000027073625468,1.4433853352592723,6.0752015178566524e-05
9,2017-01-24 20:25:00,2017-01-24 20:40:00,23.13888888888889,1.3611111111111098,1960.0014877581416,21.861181773889257,1.5811511692511442,8.393603459006241e-05
10,2017-01-24 20:50:00,2017-01-24 21:00:00,22.888888888888886,1.5370370370370365,1921.6666666763133,21.40743143647783,1.443383625936411,5.389871865706991e-05
11,2017-01-26 03:25:00,2017-01-26 03:35:00,22.61111111111111,2.9629629629629632,1768.3333353109133,19.703729810382367,1.4433814188486411,5.857491435818807e-05
12,2017-01-26 05:45:00,2017-01-26 05:55:00,22.444444444444443,3.944444444444445,1665.0000046619252,18.55558327750467,1.4433862926093006,6.22124535590425e-05
13,2017-01-30 00:10:00,2017-01-30 00:20:00,22.722222222222225,-6.5555555555555545,2634.9999954932805,29.33335086980929,1.4433779087534602,3.930201104353286e-05
14,2017-01-31 04:40:00,2017-01-31 04:55:00,21.97222222222222,-3.555555555555555,2297.501266605823,25.61117141862385,1.581147206420241,7.159452213350793e-05
15,2017-02-12 01:50:00,2017-02-12 02:00:00,22.055555555555557,-0.4814814814814818,2028.333332324413,22.59261536115615,1.4433790531773258,5.1062899662979206e-05
16,2017-02-13 21:05:00,2017-02-13 21:15:00,22.5,-2.5,2250.0000027253363,25.055576085903844,1.443381467572883,4.603005409040459e-05
17,2017-02-14 02:15:00,2017-02-14 02:30:00,22.694444444444446,-1.7916666666666659,2203.751322889758,24.569507311003026,1.5811476876372617,7.464320094590249e-05
18,2017-02-14 21:10:00,2017-02-14 21:20:00,22.38888888888889,3.0555555555555554,1740.0000012629837,19.388915419474568,1.4433802852145856,5.9529254953160673e-05
19,2017-02-17 20:05:00,2017-02-17 20:20:00,22.583333333333332,-0.22222222222222143,2052.5014201527365,22.88895637569362,1.581149131124716,8.014937122577383e-05
20,2017-02-18 20:30:00,2017-02-18 20:45:00,23.47222222222222,8.333333333333334,1362.5021417841592,15.222323747266362,1.5811627547407285,0.00012080206080575283
21,2017-02-21 05:45:00,2017-02-21 05:55:00,22.555555555555554,1.6666666666666667,1879.9999984062688,20.94446900469765,1.4433812518276374,5.509389466421689e-05
22,2017-02-23 20:35:00,2017-02-23 20:45:00,23.555555555555557,7.333333333333335,1459.9999995312473,16.27780937902393,1.4433845730110526,7.095361085089486e-05
23,2017-02-26 20:10:00,2017-02-26 20:20:00,22.555555555555554,1.722222222222223,1875.0000016134163,20.888913514370458,1.443380339425834,5.524092916008666e-05
24,2017-02-27 04:00:00,2017-02-27 04:10:00,22.666666666666668,3.3888888888888897,1734.9999961462288,19.333359940318953,1.4433807687498468,5.9700910622890354e-05
25,2017-11-04 21:00:00,2017-11-04 21:15:00,20.368055555555557,7.805555555555557,13591.783937820044,12.578680710162223,40632.37345817477,0.057823869635396055
26,2017-11-04 21:25:00,2017-11-04 21:35:00,20.324074074074076,7.472222222222222,40561.09438723912,12.855812824212219,373287.0031062819,0.04413821619485479
27,2017-11-07 05:25:00,2017-11-07 05:40:00,21.305555555555557,3.1249999999999987,1636.2517833297034,18.263973485851576,1.5811578224939133,0.0001005653215963107
28,2017-11-07 21:15:00,2017-11-07 21:30:00,21.361111111111107,4.569444444444445,1511.2519319482158,16.875091568591845,1.5811582970850073,0.00010889504937420541
29,2017-11-08 01:40:00,2017-11-08 01:50:00,20.833333333333332,2.7777777777777772,1624.9999986306354,18.11113951354624,1.4433822850146087,6.374473526697902e-05
30,2017-11-08 21:30:00,2017-11-08 21:45:00,21.416666666666664,2.999999999999999,1657.501759067167,18.50008351607091,1.5811545438986112,9.927431564236381e-05
31,2017-11-09 02:10:00,2017-11-09 02:20:00,21.0,1.6666666666666667,1739.9999995542676,19.388915419531575,1.4433833838298966,5.952928044633127e-05
32,2017-11-10 22:15:00,2017-11-10 22:35:00,21.444444444444446,-7.111111111111112,1606.2552153896872,28.733608875875476,115.93796199837585,0.01574796818616154
33,2017-11-13 01:50:00,2017-11-13 02:00:00,22.111111111111114,3.240740740740742,1698.3333333272403,18.925953105532205,1.443384275560121,6.0990622784598574e-05
34,2017-11-13 20:40:00,2017-11-13 20:50:00,21.22222222222222,4.2777777777777795,1525.00000095091,17.00003025868523,1.443386696552616,6.79274153652122e-05
35,2017-11-19 03:10:00,2017-11-19 03:20:00,21.555555555555557,1.2777777777777761,1825.0000016970598,20.333358631630492,1.4433806147750812,5.6755204602792785e-05
36,2017-11-29 22:15:00,2017-11-29 22:25:00,21.611111111111114,0.38888888888889045,1910.0000009016906,21.27780195320595,1.443379354747499,5.422812791829462e-05
37,2017-11-30 21:50:00,2017-11-30 22:00:00,19.333333333333336,5.11111111111111,1280.0000011180011,14.277813805472835,1.4433885886777287,8.093921526594242e-05
38,2017-12-01 21:00:00,2017-12-01 21:20:00,19.444444444444443,2.8888888888888906,1490.0044740849603,16.66685234307489,1.7078581142573903,0.0001563242579051735
39,2017-12-08 22:15:00,2017-12-08 22:35:00,18.03333333333333,-0.6222222222222225,1118.3392298055546,18.822741834404823,112.15442999158826,0.02054932735507626
40,2017-12-12 20:05:00,2017-12-12 20:35:00,18.15079365079365,-10.03968253968254,909.2511861821743,28.657658261582046,76.82475104210899,0.04751978098521969
41,2017-12-12 20:55:00,2017-12-12 21:10:00,17.555555555555557,-10.36111111111111,1794.645426256493,28.0334412869584,181.29635681646576,0.014716776748292944
42,2017-12-16 21:30:00,2017-12-16 21:40:00,18.27777777777778,-9.444444444444445,2494.999998645325,27.777796296228896,1.4433795353169332,4.150822229773639e-05
43,2017-12-16 23:20:00,2017-12-16 23:30:00,18.333333333333332,-10.425925925925926,2588.3333326432994,28.81483266681091,1.4433813268827274,4.001090243788733e-05
44,2017-12-17 00:00:00,2017-12-17 00:10:00,18.333333333333332,-10.833333333333334,2625.00000208245,29.222239825274187,1.4433798872999726,3.945183445431304e-05
45,2017-12-17 00:40:00,2017-12-17 00:50:00,18.333333333333332,-10.722222222222221,2615.0000013883164,29.11112878136457,1.4433786961228392,3.960275257085472e-05
46,2017-12-17 02:00:00,2017-12-17 02:10:00,18.27777777777778,-11.0,2634.9999973627196,29.333350869806974,1.4433779128135682,3.930201104721673e-05
47,2017-12-19 20:25:00,2017-12-19 20:35:00,17.333333333333332,4.092592592592592,1191.6666688667674,13.296334983284284,1.4433913262245266,8.6943836376964e-05
48,2017-12-20 03:25:00,2017-12-20 03:35:00,17.222222222222225,1.0185185185185173,1458.333333186098,16.25929089648486,1.4433851426997337,7.103476103751496e-05
49,2017-12-20 05:00:00,2017-12-20 05:10:00,17.222222222222225,0.11111111111111267,1540.000000630772,17.166696631594533,1.4433830204909062,6.726526831246594e-05
50,2017-12-20 20:45:00,2017-12-20 21:10:00,17.250000000000004,-2.7500000000000004,1800.006249746947,20.13914516017253,1.8257778222139915,0.00017103736968331404
51,2017-12-22 05:30:00,2017-12-22 05:45:00,20.86111111111111,-2.0555555555555554,2062.5014151150117,23.000067160388458,1.5811478434688693,7.976037344506527e-05
52,2017-12-23 21:35:00,2017-12-23 21:45:00,20.907407407407405,-2.0555555555555554,1377.222340591247,23.046380122284585,263.499315296608,0.020606496792811672
53,2017-12-27 21:50:00,2017-12-27 22:10:00,19.67777777777778,-15.666666666666666,2650.00212597829,35.477945227058854,253.47492014482393,0.015644231782920164
54,2017-12-29 20:55:00,2017-12-29 21:10:00,21.430555555555557,-12.86111111111111,2373.2697284848523,34.4001110428012,314.65787952532645,0.01793606813556455
55,2017-12-31 00:30:00,2017-12-31 00:40:00,16.944444444444443,-18.333333333333332,3174.999997620127,35.3333478919256,1.4433779529362714,3.2615480759220606e-05
56,2017-12-31 00:50:00,2017-12-31 01:05:00,16.694444444444446,-18.583333333333332,3175.0009227378405,35.36115477974156,1.5811445560404467,5.179416657726447e-05
57,2017-12-31 02:15:00,2017-12-31 02:40:00,16.250000000000004,-19.22222222222222,3192.5035227617445,35.61125583142297,1.8257533157656511,9.632924810425255e-05
58,2017-12-31 20:10:00,2017-12-31 20:20:00,15.777777777777779,-17.555555555555557,3000.000007015674,33.388904295141344,1.4433819385485525,3.451875971194298e-05
59,2018-01-01 20:50:00,2018-01-01 21:00:00,20.888888888888886,-12.851851851851853,3036.666668961517,33.79631151691677,1.4433737426937012,3.410178275246614e-05
60,2018-01-11 20:35:00,2018-01-11 20:45:00,20.277777777777775,5.611111111111112,1319.999999236641,14.722257162396618,1.443386571137594,7.8484620146837e-05
61,2018-01-11 20:55:00,2018-01-11 21:30:00,19.958333333333332,6.8055555555555545,1036.6359482907897,13.375885384805034,47.444979607264386,0.012226944885119516
62,2018-01-11 21:40:00,2018-01-11 21:50:00,19.592592592592595,7.166666666666667,746.1111822066961,12.50928972369411,145.14500961974014,0.02094033714723469
63,2018-01-11 22:00:00,2018-01-11 22:50:00,19.166666666666668,7.171717171717171,1079.588689268125,12.274640859622798,2.3278015839890682,0.0007155504453378532
64,2018-01-11 23:10:00,2018-01-11 23:20:00,18.72222222222222,7.055555555555557,1050.0000010643198,11.72226610400234,1.4433942575651602,9.868545525549095e-05
65,2018-01-11 23:30:00,2018-01-11 23:40:00,18.555555555555557,6.666666666666667,1070.0000006784246,11.944487509872255,1.443394851245744,9.683913532099898e-05
66,2018-01-14 05:40:00,2018-01-14 05:55:00,24.055555555555557,-15.555555555555555,2546.4308306516928,39.72785392147858,257.23507817509125,0.01471129097402625
67,2018-01-16 20:45:00,2018-01-16 20:55:00,21.444444444444443,-5.055555555555556,2385.000001819226,26.555574926270523,1.4433797122416685,4.342348361463556e-05
68,2018-01-24 05:25:00,2018-01-24 05:35:00,19.166666666666668,-7.388888888888888,2390.000001890526,26.61113044138484,1.443379823265568,4.3332602332177175e-05
69,2018-01-24 20:30:00,2018-01-24 20:40:00,18.61111111111111,-8.0,2394.99999920581,26.666685956710204,1.4433799273049375,4.3242063526026125e-05
70,2018-01-25 00:15:00,2018-01-25 00:25:00,18.444444444444443,-9.222222222222221,2490.0000008093925,27.72224077773822,1.4433768387676373,4.159162569547151e-05
71,2018-01-26 21:20:00,2018-01-26 21:30:00,21.0,1.9074074074074068,1718.3333331829053,19.148175012333493,1.443383957358792,6.028032965926516e-05
72,2018-01-27 21:00:00,2018-01-27 21:10:00,21.388888888888886,5.499999999999999,1430.0000006573393,15.944476706285764,1.4433867137525604,7.244319910711889e-05
73,2018-01-28 05:35:00,2018-01-28 05:50:00,20.90277777777778,2.000000000000001,1309.4249743558676,19.011184828285614,176.01123606558477,0.018180677856448314
74,2018-01-28 20:05:00,2018-01-28 20:30:00,21.13888888888889,-0.12037037037037011,1913.339212991525,21.398389291516203,1.8257724444108663,0.0001608823860284805
75,2018-01-29 04:35:00,2018-01-29 04:45:00,20.722222222222225,-2.1111111111111116,2055.00000231053,22.888911362625816,1.4433817088577487,5.039993848606173e-05
76,2018-01-29 22:05:00,2018-01-29 22:15:00,20.11111111111111,-5.666666666666667,2320.0000004640265,25.833353245604478,1.4433788269157435,4.464060526178907e-05
77,2018-02-06 04:20:00,2018-02-06 04:30:00,20.333333333333332,-8.5,2594.9999998558474,28.888906695099262,1.4433760743298683,3.990807850156415e-05
78,2018-02-06 20:10:00,2018-02-06 20:20:00,20.555555555555557,-8.0,2569.999996951373,28.611129090225518,1.44337697308103,4.029644463721291e-05
79,2018-02-06 21:05:00,2018-02-06 21:15:00,20.240740740740744,-9.277777777777779,1770.5555353667683,29.601917091501726,339.1951914887346,0.02062825576211624
80,2018-02-06 22:30:00,2018-02-06 22:40:00,20.40740740740741,-10.38888888888889,1847.2219792740573,30.879692184082913,353.94994791302406,0.020631415088387752
81,2018-02-06 23:20:00,2018-02-06 23:30:00,20.444444444444443,-10.870370370370372,2818.3333350255602,31.370386768033427,1.4433790394520862,3.6744539942186006e-05
82,2018-02-07 00:55:00,2018-02-07 01:10:00,20.416666666666664,-11.222222222222221,2847.501019360024,31.72227090381527,1.5811431111388066,5.775553045909856e-05
83,2018-02-07 03:15:00,2018-02-07 03:25:00,20.666666666666664,-10.888888888888891,2840.0000011383177,31.61112738384819,1.4433768486642053,3.646410272242535e-05
84,2018-02-07 20:00:00,2018-02-07 20:10:00,20.388888888888886,-6.277777777777778,2399.9999992377006,26.722241472161222,1.4433799913123377,4.315193919702429e-05
85,2018-02-07 21:20:00,2018-02-07 21:35:00,20.194444444444446,-7.527777777777779,2495.0011637495045,27.80561109985088,1.581146404167575,6.592240030324126e-05
86,2018-02-08 02:20:00,2018-02-08 02:30:00,20.666666666666664,-11.037037037037038,2853.333333456293,31.759275456166275,1.4433762983342435,3.629364759767847e-05
87,2018-02-08 21:10:00,2018-02-08 21:20:00,20.333333333333332,-8.38888888888889,2584.999995474061,28.777795652796257,1.4433808353428268,4.0062513501153705e-05
88,2018-02-08 23:55:00,2018-02-09 00:05:00,20.77777777777778,-8.203703703703704,2608.3333360196652,29.0370547523398,1.4433809534551414,3.970402459425091e-05
89,2018-02-09 01:20:00,2018-02-09 01:30:00,20.888888888888886,-8.592592592592593,2653.333334449249,29.537054452491734,1.4433781948114381,3.9030385038307476e-05
90,2018-02-10 00:55:00,2018-02-10 01:05:00,20.888888888888886,-5.277777777777778,2354.9999947629963,26.2222418393198,1.4433784580233162,4.3976836979008914e-05
91,2018-02-11 21:00:00,2018-02-11 21:10:00,20.277777777777775,-0.7222222222222227,1890.0000011349784,21.05557998612364,1.4433829027571166,5.4802252152246614e-05
92,2018-02-22 21:15:00,2018-02-22 21:30:00,20.916666666666664,-0.22222222222222143,1902.501533604921,21.222295014435655,1.5811496605827688,8.647569903880894e-05
93,2018-02-27 21:20:00,2018-02-27 21:35:00,22.13888888888889,9.083333333333334,1175.002481148962,13.139006538676975,1.5811685385954284,0.00014011364177997024
94,2018-02-28 21:30:00,2018-02-28 21:40:00,21.611111111111114,9.5,1090.000001168458,12.166708945517037,1.4433938456784194,9.506069028880003e-05
