,start_time,end_time,T_in_mean,T_out_mean,tau,T0,tau_variance,T0_variance
0,2017-01-01 01:20:00,2017-01-01 01:30:00,23.074074074074073,1.2777777777777775,391.6665975081001,22.075129372261838,88.86657077663703,0.08170185119205133
1,2017-01-01 02:10:00,2017-01-01 02:25:00,22.638888888888886,0.777777777777777,466.552282964934,22.21377536578384,141.87671859463276,0.13387816178323653
2,2017-01-01 03:10:00,2017-01-01 03:20:00,22.203703703703706,0.22222222222222143,394.33330152880575,22.260776038492587,180.10146936823548,0.1647347219832139
3,2017-01-01 20:40:00,2017-01-01 20:55:00,22.861111111111114,1.0555555555555547,466.3142202311796,22.157507024844577,75.33574318994407,0.07098027013602479
4,2017-01-01 21:35:00,2017-01-01 21:55:00,22.377777777777776,0.11111111111111269,624.3848008794812,22.62470027484412,112.85951469611027,0.07935757995328245
5,2017-01-01 23:05:00,2017-01-01 23:15:00,22.037037037037035,-0.6666666666666663,453.1480995531144,22.95466826864632,143.6219065573837,0.10271792618035687
6,2017-01-02 20:30:00,2017-01-02 20:40:00,24.12962962962963,4.000000000000002,452.08324314085814,20.35266584238011,128.83433697615052,0.08208103371492195
7,2017-01-02 21:30:00,2017-01-02 21:40:00,23.48148148148148,3.944444444444445,501.1904114274983,19.732262660890996,204.76631280323033,0.10300228940846047
8,2017-01-02 22:50:00,2017-01-02 23:05:00,24.652777777777775,4.027777777777778,742.9060108013773,20.833684567956873,115.81615722054497,0.040599682304855354
9,2017-01-02 23:30:00,2017-01-02 23:45:00,24.583333333333336,3.611111111111111,587.9720567010467,21.240488183483198,179.80769797027514,0.1024025540599013
10,2017-01-03 01:00:00,2017-01-03 01:10:00,24.555555555555554,3.4999999999999982,540.714314324819,21.250553348218304,132.17857450766837,0.061555737849161074
11,2017-01-03 02:10:00,2017-01-03 02:25:00,24.805555555555557,3.611111111111111,1907.5015281799915,21.27785037979491,1.5811503224142982,8.624875860762953e-05
12,2017-01-03 02:50:00,2017-01-03 03:05:00,24.59722222222222,3.583333333333333,485.20112180742893,21.339819147766644,65.19063012465077,0.05466405283909128
13,2017-01-03 03:50:00,2017-01-03 04:25:00,24.291666666666664,3.527777777777777,798.6817694185829,21.22168033930807,91.74961663121634,0.06300314961118864
14,2017-01-03 05:05:00,2017-01-03 05:15:00,24.944444444444443,3.611111111111111,1919.9999979316985,21.38891293881893,1.4433803837928234,5.3945505608552265e-05
15,2017-01-03 20:30:00,2017-01-03 20:40:00,23.666666666666668,4.055555555555554,503.5714856359169,19.806149454847304,122.98950312304085,0.06151446921467563
16,2017-01-03 21:30:00,2017-01-03 21:40:00,23.703703703703706,3.111111111111112,617.2222363385207,20.75963226329408,117.24073261143542,0.040971372149490606
17,2017-01-03 22:30:00,2017-01-03 22:40:00,23.759259259259256,3.0555555555555554,620.5555972992037,20.870741374254365,117.8821210566811,0.040973712915668786
18,2017-01-04 00:00:00,2017-01-04 00:10:00,24.333333333333332,2.9999999999999987,547.8571560922641,21.52832395802192,133.94572289977376,0.061563032063183074
19,2017-01-04 01:45:00,2017-01-04 01:55:00,26.055555555555554,2.6111111111111125,1055.0000001182184,23.555642905253148,1.4433956419872096,0.0001964345834376565
20,2017-01-04 02:10:00,2017-01-04 02:45:00,25.13888888888889,2.6111111111111125,428.5446865563889,23.45839138309027,44.40495663144212,0.11571698775215125
21,2017-01-04 03:55:00,2017-01-04 04:15:00,24.244444444444447,3.5333333333333337,581.2605929578892,21.068945187217132,70.84852609114697,0.053487754276392956
22,2017-01-04 05:15:00,2017-01-04 05:30:00,24.5,3.8333333333333335,716.926422383009,20.88336872250284,180.6412784271884,0.0681410831587897
23,2017-01-04 20:50:00,2017-01-04 21:15:00,25.40740740740741,-7.777777777777779,1135.3029504586107,33.551632310061656,129.67969716951282,0.050743401882692954
24,2017-01-04 22:55:00,2017-01-04 23:15:00,25.177777777777774,-7.5,667.2842408228956,33.169313201913184,82.35195213221442,0.07438141299538945
25,2017-01-04 23:35:00,2017-01-05 00:20:00,24.32777777777778,-7.611111111111112,971.4856016875765,32.68367362991839,73.93314948040423,0.06742328581408046
26,2017-01-05 01:25:00,2017-01-05 01:40:00,25.458333333333336,-7.513888888888889,1289.7846317974218,33.16420012926581,95.65631021896978,0.017764217325558444
27,2017-01-05 02:10:00,2017-01-05 02:30:00,25.333333333333336,-7.3,1087.9709877884125,32.93396730096221,129.83068435972524,0.04397026039680195
28,2017-01-05 03:15:00,2017-01-05 03:30:00,25.222222222222225,-6.625,1433.127034483829,32.01408197138737,1.5811593266411126,0.00022968015983295992
29,2017-01-05 03:55:00,2017-01-05 04:10:00,25.222222222222225,-6.833333333333333,961.0030484816251,32.30615999572581,99.6515553596237,0.032425962141014966
30,2017-01-05 04:45:00,2017-01-05 05:05:00,25.244444444444447,-6.7333333333333325,2054.287735539188,32.13363035275618,337.1957617162159,0.0313438503796013
31,2017-01-05 05:35:00,2017-01-05 05:55:00,25.3,-6.611111111111112,1196.6736885436999,32.17833175944908,115.16822328478786,0.031518197097342694
32,2017-01-05 20:00:00,2017-01-05 20:10:00,24.537037037037038,-8.11111111111111,586.3330836520026,32.92694822646157,268.77396434720777,0.16503097005901846
33,2017-01-05 21:00:00,2017-01-05 21:15:00,23.444444444444446,-8.88888888888889,691.4316832904826,32.684893508609875,161.13248175985606,0.10224785603574574
34,2017-01-05 22:00:00,2017-01-05 22:10:00,23.555555555555554,-9.166666666666666,735.0001311379241,32.94507213631463,316.28834523135356,0.1238299705528098
35,2017-01-06 00:30:00,2017-01-06 00:55:00,25.111111111111114,-10.944444444444445,745.2470180101966,36.66300130098444,102.45153180576062,0.1012865381124932
36,2017-01-06 02:35:00,2017-01-06 03:00:00,25.074074074074073,-10.935185185185185,680.7535022303271,36.67367339811235,118.67348766624195,0.14050340961370464
37,2017-01-06 04:40:00,2017-01-06 05:05:00,25.18518518518519,-11.925925925925926,647.2017966955442,37.83153425674711,98.1620556320576,0.13255873464981852
38,2017-01-06 22:55:00,2017-01-06 23:05:00,24.98148148148148,-10.888888888888891,806.666685915589,36.092935396939474,114.93118291097962,0.04094579049015098
39,2017-01-07 00:50:00,2017-01-07 01:15:00,24.51851851851852,-11.25925925925926,574.4851884539348,36.560741220478356,73.55602914545427,0.12164363974496471
40,2017-01-07 03:30:00,2017-01-07 04:00:00,25.126984126984127,-11.769841269841269,634.6200017777837,37.77460808198484,82.95390158563674,0.13821889528454168
41,2017-01-07 05:40:00,2017-01-07 05:55:00,25.15277777777778,-12.166666666666666,1767.2378673622395,37.47797383488416,245.07479781190438,0.0274264249832864
42,2017-01-07 20:00:00,2017-01-07 20:45:00,23.666666666666664,-10.5,963.9038406719188,34.969701751585596,48.49053760839627,0.04805597167437457
43,2017-01-07 21:30:00,2017-01-07 21:40:00,23.09259259259259,-10.888888888888891,469.87177534728824,34.343717988801544,102.76217345202356,0.10230510745643294
44,2017-01-07 22:35:00,2017-01-07 22:50:00,23.083333333333332,-10.833333333333334,1525.2519008547902,34.08362403773935,239.42848752662167,0.032697381082360526
45,2017-01-07 23:30:00,2017-01-07 23:40:00,23.074074074074076,-10.888888888888891,508.8889194131336,34.2972000571137,96.39047926251205,0.08175590525623788
46,2017-01-08 01:15:00,2017-01-08 01:40:00,24.37037037037037,-10.861111111111112,1681.611459534905,35.49388746157852,112.24545114826793,0.02122683861924223
47,2017-01-08 04:25:00,2017-01-08 04:40:00,24.902777777777775,-8.48611111111111,1767.0607135752693,33.530735886301024,178.53810250251342,0.01787950639795904
48,2017-01-08 20:25:00,2017-01-08 20:35:00,23.62962962962963,-11.481481481481481,2106.1103199460254,35.19449932866395,403.7714323834222,0.02064035754361469
49,2017-01-08 22:40:00,2017-01-08 23:05:00,23.23148148148148,-10.61111111111111,693.2840589860475,34.45568633874305,171.5878893218094,0.18406828516498874
50,2017-01-09 21:55:00,2017-01-09 22:05:00,24.703703703703706,-2.759259259259259,493.9999857933238,27.74139170490104,55.56513755088892,0.04044195542289313
51,2017-01-09 23:05:00,2017-01-09 23:30:00,25.240740740740744,-1.8518518518518519,1123.6309423076607,27.394880303391496,104.8779053479125,0.03420517712589201
52,2017-01-10 00:55:00,2017-01-10 01:35:00,25.944444444444443,-1.8333333333333337,1416.2520216333437,28.171662847987662,86.54297504581034,0.028694812278407755
53,2017-01-10 01:50:00,2017-01-10 02:05:00,25.125,-1.861111111111111,622.5068078608551,27.31210622355826,82.44707117980666,0.05388737240107178
54,2017-01-10 02:55:00,2017-01-10 03:05:00,24.925925925925924,-2.1666666666666674,609.1666095475224,27.31526812550173,86.42647623708758,0.04079535863425034
55,2017-01-10 03:30:00,2017-01-10 03:40:00,25.166666666666668,-0.8888888888888897,2345.0000006887894,26.111130811564433,1.4433778139157627,4.41644850072355e-05
56,2017-01-10 03:50:00,2017-01-10 04:00:00,24.888888888888886,-0.9074074074074079,773.888888528402,25.963141272937946,1.4434099435898793,0.0004018189279508326
57,2017-01-10 04:50:00,2017-01-10 05:05:00,24.944444444444443,-1.3611111111111107,845.5403858195932,26.539345482711003,85.43289046340229,0.02947718313523715
58,2017-01-10 05:35:00,2017-01-10 05:45:00,25.12962962962963,-1.3333333333333326,1191.6667006257096,26.57407380008684,345.68807892429606,0.04161719203067738
59,2017-01-10 21:00:00,2017-01-10 21:10:00,23.722222222222225,5.333333333333333,660.999972927123,18.528161407608327,227.1983645055107,0.06181430265438141
60,2017-01-10 22:25:00,2017-01-10 23:05:00,24.913580246913583,6.82716049382716,790.4369845954234,18.54742441272546,81.36414879248346,0.056638464391605185
61,2017-01-11 00:40:00,2017-01-11 01:40:00,25.982905982905983,7.11965811965812,545.9188466808707,19.917181793659864,25.304204954839687,0.0579372017850925
62,2017-01-11 01:55:00,2017-01-11 02:15:00,24.444444444444443,4.48888888888889,663.1572898907839,20.25759812527539,133.21397167281873,0.0743964887897536
63,2017-01-11 03:55:00,2017-01-11 04:05:00,24.59259259259259,4.2592592592592595,457.083281499872,20.556158489733118,64.4771261531743,0.04059062031705692
64,2017-01-11 05:00:00,2017-01-11 05:10:00,24.425925925925924,2.833333333333334,430.9257871887272,21.8436066216942,136.49496189160314,0.10267627663078183
65,2017-01-11 20:00:00,2017-01-11 20:10:00,24.314814814814813,4.777777777777779,501.1903412634365,19.732262687703958,204.7661852046804,0.1030023012593614
66,2017-01-11 23:00:00,2017-01-11 23:10:00,24.722222222222225,5.1111111111111125,704.9997817896528,19.75035981837992,242.4398001485148,0.06183298599104015
67,2017-01-11 23:30:00,2017-01-11 23:45:00,23.97222222222222,5.555555555555555,551.1719357286867,18.668019368371837,114.35069198170619,0.06509012824658542
68,2017-01-12 00:45:00,2017-01-12 01:25:00,24.932098765432098,6.000000000000002,611.3900450679906,19.557287512568493,50.38590294031868,0.0615419942500266
69,2017-01-12 02:35:00,2017-01-12 03:10:00,24.98611111111111,7.513888888888888,522.2135059393955,18.063329977333144,54.726554129241286,0.07428910479520924
70,2017-01-12 21:00:00,2017-01-12 21:45:00,24.494444444444447,0.24444444444444477,802.6587569737097,24.93540119917949,33.44184247386282,0.03398647715891927
71,2017-01-12 22:00:00,2017-01-12 22:10:00,23.51851851851852,0.22222222222222143,598.8095218398695,23.491086285795983,47.92877543188004,0.020132608025058278
72,2017-01-12 23:30:00,2017-01-12 23:40:00,24.40740740740741,-0.16666666666666707,884.3333392756522,24.713145402935588,100.63471724807893,0.020434660141880074
73,2017-01-13 00:25:00,2017-01-13 00:35:00,25.055555555555554,-0.9444444444444441,2340.0000015078904,26.055575297976098,1.4433805534629678,4.425891016218705e-05
74,2017-01-13 00:55:00,2017-01-13 01:05:00,24.85185185185185,-1.018518518518518,423.1818100178829,26.176629709934495,20.762419557832885,0.01940422908090005
75,2017-01-13 01:35:00,2017-01-13 02:00:00,24.75,-1.4629629629629637,1834.9115899792373,26.391857827125285,128.95760996802852,0.015236100336839514
76,2017-01-13 02:30:00,2017-01-13 02:45:00,24.916666666666664,-1.555555555555556,2382.50122209416,26.555613716457845,1.5811467535639339,6.903793064501814e-05
77,2017-01-13 02:55:00,2017-01-13 03:05:00,24.61111111111111,-1.555555555555556,940.9996313410919,26.305825418558577,324.1898148986572,0.061903440231769746
78,2017-01-13 03:35:00,2017-01-13 03:45:00,24.87037037037037,-1.61111111111111,953.6666547854743,26.620442597506248,111.60438394580784,0.02099761598681866
79,2017-01-13 04:50:00,2017-01-13 05:00:00,25.574074074074076,-2.555555555555556,1687.2222764869146,28.21303142306352,323.15841447242866,0.02062448644609454
80,2017-01-13 05:30:00,2017-01-13 05:45:00,25.15277777777778,-3.5000000000000004,628.7250271234327,28.995474206141306,39.63717027921342,0.026964517040186795
81,2017-01-13 20:45:00,2017-01-13 21:10:00,24.85185185185185,-5.611111111111111,706.5791905550892,31.004413571270504,96.07339483899989,0.08929989749780384
82,2017-01-13 22:55:00,2017-01-13 23:20:00,24.35185185185185,-6.601851851851852,772.2167419768982,31.45690643294718,88.84203490462687,0.07021574615995786
83,2017-01-14 00:35:00,2017-01-14 01:00:00,25.222222222222225,-7.5092592592592595,1321.344241021843,33.041902378832596,72.6826399693362,0.020697378453961354
84,2017-01-14 01:30:00,2017-01-14 01:45:00,25.041666666666664,-7.444444444444445,1008.5365538753716,32.72809256509795,92.99824109116443,0.027841965401650907
85,2017-01-14 03:00:00,2017-01-14 03:10:00,24.98148148148148,-7.833333333333333,842.6190012378647,33.00972487098843,345.56682363304856,0.10321346189786382
86,2017-01-14 04:45:00,2017-01-14 05:05:00,25.211111111111112,-8.311111111111112,1587.6348653933287,33.73369961999004,127.08412110931746,0.02074294448729866
87,2017-01-14 05:35:00,2017-01-14 05:55:00,25.211111111111112,-8.277777777777779,1159.619645079636,33.778301918928726,90.07789031966287,0.027552642272208498
88,2017-01-14 21:35:00,2017-01-14 22:05:00,25.055555555555554,-3.865079365079365,629.5083185595787,29.614306017737654,45.26819467657105,0.06008925851857967
89,2017-01-14 22:55:00,2017-01-14 23:05:00,23.759259259259256,-4.0740740740740735,715.9523678470156,28.027937938353602,60.516242866825735,0.02123987190608768
90,2017-01-14 23:30:00,2017-01-14 23:45:00,23.861111111111114,-4.444444444444445,1156.1376484879695,28.489440325071982,362.07968165661924,0.07185526306365606
91,2017-01-15 01:30:00,2017-01-15 01:40:00,22.740740740740744,-4.833333333333333,826.111182837113,27.74113176478452,316.1095447913765,0.08254074554635843
92,2017-01-15 03:15:00,2017-01-15 03:25:00,25.37037037037037,-4.666666666666666,1350.833275330645,30.148284945975195,388.258194725853,0.04128585173016516
93,2017-01-15 04:10:00,2017-01-15 04:30:00,25.133333333333333,-4.844444444444444,1226.3686141600745,30.222718183597504,91.04714921734693,0.022286154671601246
94,2017-01-15 05:00:00,2017-01-15 05:25:00,25.10185185185185,-4.666666666666665,1538.1074728102215,30.010966897710414,137.88330396435794,0.026341429431622532
95,2017-01-15 20:30:00,2017-01-15 20:40:00,23.90740740740741,-1.3888888888888886,757.7777598458048,25.463389147901214,289.80912081251006,0.08251569712021979
96,2017-01-15 21:30:00,2017-01-15 21:50:00,23.555555555555554,-1.3333333333333326,1117.5026583730273,25.11210336474142,320.4392805696048,0.07844842260879868
97,2017-01-15 22:45:00,2017-01-15 22:55:00,24.40740740740741,-1.3333333333333326,514.6296357425266,25.99123144045017,31.56075030345879,0.019837315107809624
98,2017-01-16 00:25:00,2017-01-16 01:05:00,25.623456790123456,-3.672839506172839,1057.0648976993948,29.85364700100676,108.27023658407617,0.06809169789737828
99,2017-01-16 03:00:00,2017-01-16 03:25:00,25.009259259259256,-3.3888888888888897,1296.8316584912673,28.672576453964815,72.07621183900672,0.018488255100162203
100,2017-01-16 04:00:00,2017-01-16 04:25:00,24.916666666666668,-3.944444444444445,1398.9704146029142,29.11960244687172,96.85244227052887,0.021690766848789386
101,2017-01-16 04:50:00,2017-01-16 05:00:00,25.055555555555557,-4.185185185185186,1315.8333321265718,29.351921952652244,1.4433863825957702,0.00015746672893879687
102,2017-01-16 05:45:00,2017-01-16 05:55:00,25.055555555555557,-3.7777777777777772,1297.5000001395397,28.944515531830415,1.443386761388442,0.00015969339597754023
103,2017-01-16 20:30:00,2017-01-16 20:45:00,24.97222222222222,0.4999999999999992,579.6116454124384,24.789790081956962,43.177566662842324,0.029527110331610255
104,2017-01-16 22:00:00,2017-01-16 22:20:00,24.52222222222222,0.9999999999999984,621.1856708592027,23.902400887972817,101.64929606497688,0.07628962622273197
105,2017-01-16 23:30:00,2017-01-16 23:50:00,24.3,1.0555555555555547,632.2802507016627,23.613515304746553,110.4193768951772,0.07903844754474701
106,2017-01-17 00:50:00,2017-01-17 02:05:00,25.045138888888886,1.0555555555555567,1132.9680466103848,24.791781439359152,46.184675084333406,0.03854820421148199
107,2017-01-17 02:50:00,2017-01-17 03:00:00,24.314814814814813,0.9999999999999986,1399.444456883264,23.398164531042895,270.87647287268885,0.020830125510978938
108,2017-01-17 03:50:00,2017-01-17 04:00:00,24.37037037037037,0.944444444444446,1406.1110337280145,23.509275570506336,272.15904283441654,0.02082952759276786
109,2017-01-17 04:25:00,2017-01-17 04:50:00,24.509259259259263,0.6666666666666677,1670.4676831764084,24.021360773108825,215.96264539175584,0.028009184068669864
110,2017-01-17 05:35:00,2017-01-17 05:50:00,24.513888888888893,1.1111111111111112,917.0679959176641,23.594518294394263,193.0672644838053,0.050369987085716876
111,2017-01-17 22:45:00,2017-01-18 00:00:00,25.13541666666667,1.5243055555555556,859.4328040504325,24.655294248568094,35.380096138015574,0.05073350521297727
112,2017-01-18 00:45:00,2017-01-18 01:00:00,24.34722222222222,1.555555555555554,1578.6553911863923,22.900061222119355,211.88139951244375,0.018150186615043636
113,2017-01-18 03:15:00,2017-01-18 04:30:00,25.145833333333332,1.57986111111111,773.3891440636697,24.725842757715956,44.350680185666114,0.07854248601045065
114,2017-01-18 21:00:00,2017-01-18 21:25:00,24.361111111111114,2.9999999999999996,595.8423741190975,21.81173471028886,59.24266945444032,0.05436122583454458
115,2017-01-18 23:05:00,2017-01-18 23:50:00,25.033333333333335,2.972222222222221,1031.8219868484446,22.545280692260217,52.98418223302397,0.029569996374739844
116,2017-01-19 00:10:00,2017-01-19 00:25:00,24.513888888888893,2.944444444444443,1494.0402675616635,21.677842432976586,200.60790542561983,0.01815859090239247
117,2017-01-19 00:40:00,2017-01-19 00:50:00,24.462962962962962,3.555555555555555,1253.888924241894,20.990832798233196,239.76411313635637,0.02059685464400594
118,2017-01-19 01:50:00,2017-01-19 02:05:00,24.347222222222225,3.5277777777777763,605.4092789824404,21.07806933536271,103.09737734076032,0.0549687324515264
119,2017-01-19 02:45:00,2017-01-19 03:00:00,24.38888888888889,2.972222222222221,1205.9392335990126,21.55004535302843,262.8147372547708,0.03626730879286371
120,2017-01-19 03:50:00,2017-01-19 04:05:00,24.38888888888889,2.972222222222221,876.1418442842246,21.600346111870017,168.9777397837485,0.04420570093572219
121,2017-01-19 04:25:00,2017-01-19 04:35:00,24.555555555555557,2.685185185185185,1968.3333363330755,21.92594938666384,1.4433825018886761,5.262024154742722e-05
122,2017-01-19 04:45:00,2017-01-19 04:55:00,24.33333333333333,2.5555555555555562,979.9999988162615,21.88898288941619,1.4433978607967815,0.0002114829275509008
123,2017-01-19 05:35:00,2017-01-19 05:50:00,24.444444444444443,3.111111111111112,1201.2516604680177,21.466712202999965,261.80003982803345,0.036268349191974546
124,2017-01-19 20:30:00,2017-01-19 20:40:00,23.333333333333332,2.5555555555555562,746.9999427700701,20.917006299066397,256.9882749670812,0.061848808910888245
125,2017-01-20 00:40:00,2017-01-20 00:55:00,26.40277777777778,1.5000000000000016,974.0243747335655,25.094856143430903,71.87914482770336,0.017687022322284026
126,2017-01-20 01:05:00,2017-01-20 01:50:00,25.26666666666667,1.5000000000000016,597.9337370665553,24.670917289174387,27.83513421637233,0.05014819800974286
127,2017-01-20 02:00:00,2017-01-20 02:15:00,24.0,1.5000000000000016,919.5470465431092,22.68384511118687,175.98675046852173,0.04390493829898949
128,2017-01-20 03:25:00,2017-01-20 03:35:00,24.37037037037037,1.518518518518518,1027.5000413154976,22.963142674922466,294.93059865921146,0.041247117193599046
129,2017-01-20 03:55:00,2017-01-20 04:05:00,24.62962962962963,1.5555555555555542,1383.8889118277893,23.15749083885551,264.78211696520873,0.020606963857610256
130,2017-01-20 05:15:00,2017-01-20 05:30:00,24.51388888888889,1.6111111111111103,982.0279342528515,23.077988092624647,124.74081425232156,0.027770604097343003
131,2017-01-20 20:20:00,2017-01-20 20:35:00,24.833333333333332,3.555555555555555,416.74931386318633,21.662221512317213,59.57800320276367,0.06861302863636676
132,2017-01-20 21:00:00,2017-01-20 21:15:00,24.208333333333332,3.555555555555555,530.2176940831945,20.945823992238317,88.22329643305525,0.060864339339390214
133,2017-01-20 22:20:00,2017-01-20 22:35:00,24.708333333333336,3.0555555555555554,557.6500985565074,21.94485856597066,95.69059304458173,0.0625578516595458
134,2017-01-20 22:55:00,2017-01-20 23:05:00,24.833333333333332,2.962962962962962,1968.333336333074,21.92594938666384,1.4433825017433288,5.2620241542128456e-05
135,2017-01-20 23:15:00,2017-01-20 23:25:00,24.62962962962963,2.944444444444443,976.6664292901464,21.796295920145386,283.627780993,0.04166309125609482
136,2017-01-21 00:15:00,2017-01-21 00:35:00,24.58888888888889,2.9333333333333345,651.6769540236878,21.989132903742668,134.79300296359165,0.08460189473914605
137,2017-01-21 01:30:00,2017-01-21 01:40:00,24.222222222222225,3.0555555555555554,760.9998281702428,21.305888983069334,261.8380171245463,0.061853693701539925
138,2017-01-21 03:20:00,2017-01-21 03:35:00,24.541666666666668,2.8888888888888884,779.9057090493192,21.86144586657932,121.54720136408876,0.04058309897380487
139,2017-01-21 04:10:00,2017-01-21 04:20:00,24.666666666666668,2.8888888888888906,1960.0000011771965,21.83335689361578,1.443379357029864,5.284405746825564e-05
140,2017-01-21 05:10:00,2017-01-21 05:35:00,24.574074074074076,2.8888888888888875,1069.0991903284769,21.939519619244347,155.21589830729982,0.044766753198919707
141,2017-01-21 20:00:00,2017-01-21 20:10:00,24.462962962962962,4.333333333333332,604.4444519225634,20.296371204205077,117.88246265848696,0.04199137991082343
142,2017-01-21 21:10:00,2017-01-21 21:35:00,24.509259259259263,4.648148148148148,935.3747548517277,20.127471728451074,152.734227540762,0.05273677550031224
143,2017-01-21 22:20:00,2017-01-21 22:35:00,24.416666666666668,4.388888888888888,644.470473010513,20.261450354369217,98.95498169627452,0.04477890814016069
144,2017-01-21 23:30:00,2017-01-21 23:55:00,24.212962962962962,4.2777777777777795,995.0730677635095,20.186443799477995,162.08394519564146,0.04962305365377023
145,2017-01-22 01:00:00,2017-01-22 01:25:00,24.48148148148148,3.8333333333333326,986.8018670013782,20.91058377466137,111.83868577646162,0.0360622895795782
146,2017-01-22 03:30:00,2017-01-22 03:50:00,24.122222222222224,3.944444444444445,907.5031569066298,20.400731585558983,138.01466470236142,0.041563804433736626
147,2017-01-22 04:55:00,2017-01-22 05:05:00,24.611111111111114,3.7777777777777786,1875.0000016133124,20.88891351437046,1.4433803379794585,5.52409291589003e-05
148,2017-01-22 20:00:00,2017-01-22 20:15:00,24.041666666666664,4.333333333333332,537.2019643258449,19.984332997536548,26.746457503770504,0.017152267893708766
149,2017-01-22 21:30:00,2017-01-22 21:40:00,24.259259259259263,3.888888888888889,365.3332669497142,20.649784535428473,166.70915267653132,0.16466266932585286
150,2017-01-22 23:00:00,2017-01-22 23:15:00,24.625,2.7777777777777777,561.5032996092175,22.139895411838253,61.476022654530624,0.039995772677799905
151,2017-01-23 00:35:00,2017-01-23 00:55:00,26.066666666666663,2.5555555555555562,1175.0063920347834,23.711628904105417,73.9077774737592,0.015457614447502018
152,2017-01-23 01:05:00,2017-01-23 01:55:00,24.92929292929293,2.530303030303031,613.685484751461,23.322561412020026,34.79891150739697,0.0622553395165219
153,2017-01-23 02:45:00,2017-01-23 03:05:00,24.622222222222224,2.033333333333334,1197.357775820298,22.777938315682874,179.133373410711,0.034662569226443174
154,2017-01-23 03:30:00,2017-01-23 03:40:00,24.85185185185185,1.9444444444444444,1373.8889847247458,22.990824773518057,262.85769209487944,0.020606252402748815
155,2017-01-23 03:50:00,2017-01-23 04:05:00,24.597222222222225,1.9722222222222225,1198.3851400389995,22.76679323208326,123.60680592392696,0.018247671518144146
156,2017-01-23 04:35:00,2017-01-23 05:00:00,24.86111111111111,2.00925925925926,2056.6721342283977,22.990965131947416,1.8257679041014312,0.00014964559656071742
157,2017-01-23 05:30:00,2017-01-23 05:50:00,24.855555555555558,2.000000000000001,1027.5064849013409,23.078531568822182,100.98975046415391,0.026861820696565914
158,2017-01-23 21:30:00,2017-01-23 22:10:00,24.47530864197531,2.4444444444444433,717.2159580219953,22.650187492867406,77.34451708895071,0.07973643937816474
159,2017-01-23 23:20:00,2017-01-23 23:40:00,24.58888888888889,1.8444444444444446,640.3258865496481,23.101026493221372,62.30860886984816,0.04254677239349647
160,2017-01-24 01:10:00,2017-01-24 01:35:00,24.935185185185187,0.8333333333333334,698.6765555547877,24.535110999637983,112.94602377030995,0.08495745057575768
161,2017-01-24 02:10:00,2017-01-24 02:35:00,24.63888888888889,0.7962962962962971,1059.5027390162957,24.12477083005645,147.98773489228418,0.04778391361782029
162,2017-01-24 03:20:00,2017-01-24 03:30:00,24.537037037037038,0.48148148148148046,1081.6668263939225,24.16683739142665,310.5655528772669,0.0412552179442323
163,2017-01-24 04:30:00,2017-01-24 04:45:00,24.416666666666664,0.5555555555555556,510.3614129335274,24.21289530450285,82.60036742507054,0.07106959594916469
164,2017-01-24 05:35:00,2017-01-24 05:50:00,24.72222222222222,0.5555555555555556,1553.573918845238,24.2834580036389,156.94573085513923,0.014719693802483481
165,2017-01-24 20:05:00,2017-01-24 20:40:00,24.28472222222222,1.2083333333333317,914.3036844951108,23.520486244596704,71.47197538949396,0.041577737524332956
166,2017-01-24 22:25:00,2017-01-24 23:05:00,25.746913580246908,1.6049382716049376,1124.252450820018,24.573674639998167,40.50562076328815,0.018549975628966757
167,2017-01-24 23:30:00,2017-01-24 23:40:00,25.074074074074073,1.5555555555555542,604.5237919122798,23.713305268954652,48.40006897019001,0.020138027896112437
168,2017-01-25 00:50:00,2017-01-25 01:55:00,25.19444444444444,0.6825396825396811,746.3673712837207,25.593533401287154,43.20552058069766,0.07406620840184201
169,2017-01-25 03:35:00,2017-01-25 03:55:00,24.666666666666668,1.2222222222222239,2110.003158270663,23.55568682916953,1.7078396143362033,0.00011031815561875722
170,2017-01-25 04:30:00,2017-01-25 04:55:00,24.592592592592595,1.6666666666666667,1443.6713459448495,23.124886756610806,152.84822638340341,0.025531512779992854
171,2017-01-25 20:30:00,2017-01-25 20:40:00,23.833333333333332,2.6111111111111125,423.8888592367837,21.473034916862304,80.03656172469643,0.06115666829125564
172,2017-01-25 21:40:00,2017-01-25 22:00:00,24.733333333333334,2.5555555555555562,1248.131748187283,22.355820709844142,156.9416548149652,0.02743625106101368
173,2017-01-25 23:10:00,2017-01-25 23:40:00,24.619047619047617,2.69047619047619,503.67501423798126,22.587010247391667,48.40579043586782,0.07626601196236728
174,2017-01-26 00:40:00,2017-01-26 01:25:00,24.71666666666667,3.0333333333333337,1189.3182305278938,22.095842840443332,60.28304509903003,0.02486061269417784
175,2017-01-26 02:20:00,2017-01-26 02:35:00,24.34722222222222,3.1111111111111116,659.4037869549483,21.478256183173237,118.71438278121326,0.05440686782507585
176,2017-01-26 20:30:00,2017-01-26 20:40:00,24.370370370370367,2.1111111111111094,667.2221783434507,22.426271133974613,126.86269872428612,0.04100422412847931
177,2017-01-26 21:00:00,2017-01-26 21:10:00,23.777777777777775,1.9444444444444444,784.9999418915803,21.972545471440434,270.15139143154073,0.06186163792010331
178,2017-01-26 21:55:00,2017-01-26 22:20:00,23.62037037037037,2.453703703703703,886.9669615552407,21.46608271180327,123.82350047245119,0.050687251702522175
179,2017-01-27 01:10:00,2017-01-27 01:20:00,24.462962962962962,1.3888888888888886,1039.1669878371097,23.18518479496419,301.66914793372587,0.04164781282972123
180,2017-01-27 02:20:00,2017-01-27 02:35:00,24.333333333333332,0.7222222222222225,664.6940337010572,23.878189457574386,110.97989485231643,0.05565252420401353
181,2017-01-27 03:00:00,2017-01-27 03:10:00,23.759259259259256,0.44444444444444287,380.75752478342696,23.621636951455688,98.29534456583814,0.10229159743107591
182,2017-01-27 04:05:00,2017-01-27 04:20:00,25.194444444444446,0.33333333333333415,2237.5013024494383,24.944506365091616,1.5811484530921684,7.351619347293939e-05
183,2017-01-27 05:35:00,2017-01-27 05:45:00,24.777777777777775,0.6111111111111119,2174.999999811787,24.22224345895745,1.4433827478935193,4.7617989535029215e-05
184,2017-01-27 20:00:00,2017-01-27 20:10:00,23.555555555555554,0.4999999999999993,592.1429140356194,23.25050553225741,144.90175463621122,0.06160429363602585
185,2017-01-27 21:40:00,2017-01-27 21:50:00,25.074074074074076,0.05555555555555634,900.3332634927709,25.157586630687153,102.4821941438558,0.020439465335222663
186,2017-01-27 22:05:00,2017-01-27 22:35:00,24.746031746031743,-0.1190476190476185,997.391712342283,25.24059197313376,169.5392103878088,0.07683027243571741
187,2017-01-27 23:15:00,2017-01-27 23:45:00,23.97619047619048,-0.5873015873015878,645.3492780666479,25.13809850334229,69.14955724942558,0.0741650250490503
188,2017-01-28 01:10:00,2017-01-28 01:35:00,24.833333333333332,-0.4814814814814811,926.3150913403593,25.657645274456446,112.44173590537916,0.050460347421554384
189,2017-01-28 03:25:00,2017-01-28 04:00:00,24.395833333333336,-0.9444444444444446,932.3240598042821,25.81846062049174,102.27931697065115,0.06282650901419791
190,2017-01-28 04:55:00,2017-01-28 05:10:00,24.97222222222222,-0.9861111111111114,1297.920290774396,26.108524973917607,203.9598925992843,0.029446724066509458
191,2017-01-28 05:35:00,2017-01-28 05:55:00,24.955555555555552,-0.9444444444444441,1457.505830439567,26.078005071092985,183.11151975591122,0.027404499648965405
192,2017-01-28 20:00:00,2017-01-28 20:10:00,24.259259259259263,-0.9444444444444441,503.1481442433074,25.454572935842247,159.6578125884121,0.10279815947887416
193,2017-01-28 21:25:00,2017-01-28 21:35:00,24.111111111111114,-0.9444444444444441,450.9999997586472,25.33384091155488,1.443479020536701,0.001150201557502338
194,2017-01-28 23:30:00,2017-01-28 23:40:00,25.314814814814813,-1.4444444444444453,1203.3330143906205,26.870523919679318,345.6841063212162,0.04127078072226156
195,2017-01-29 00:40:00,2017-01-29 01:20:00,24.753086419753085,-1.561728395061728,693.3880190482718,27.080196595581018,67.21615905918414,0.08858885047203832
196,2017-01-29 02:30:00,2017-01-29 02:45:00,23.73611111111111,-1.555555555555556,733.3080922079105,25.55092427218673,160.875593505789,0.07098029105406405
197,2017-01-29 04:20:00,2017-01-29 04:30:00,25.240740740740744,-2.4259259259259256,1659.444654287518,27.750069595968277,317.81217553470924,0.02062314509098919
198,2017-01-29 05:05:00,2017-01-29 05:30:00,25.175925925925927,-3.0925925925925917,1460.214962746723,28.511059247591195,130.3208782592489,0.026235796801957558
199,2017-01-29 20:00:00,2017-01-29 20:10:00,23.64814814814815,-4.222222222222223,715.4760786590651,28.065362887841754,293.1200696169878,0.10315847752424172
200,2017-01-29 21:50:00,2017-01-29 22:00:00,24.425925925925924,-5.5555555555555545,1079.666643507474,30.120434230957464,126.15325925373895,0.020963368420450844
201,2017-01-30 01:45:00,2017-01-30 02:05:00,26.27777777777778,-6.722222222222221,2970.0022466872747,33.11120444979032,1.7078306075570742,7.83386510651197e-05
202,2017-01-30 02:30:00,2017-01-30 02:50:00,25.34444444444444,-7.000000000000002,676.4031289683326,32.82438452195609,55.52990659698949,0.0483111392441984
203,2017-01-30 04:55:00,2017-01-30 05:15:00,25.877777777777776,-9.133333333333331,2626.669067691646,35.14452876396459,254.2772559098779,0.01582332078767346
204,2017-01-30 20:55:00,2017-01-30 21:10:00,23.93055555555555,-5.777777777777777,650.9198603125407,30.05150672357077,128.19383266433348,0.08435076502946649
205,2017-01-30 21:20:00,2017-01-30 21:50:00,23.253968253968253,-5.539682539682539,1188.6236454462785,29.158286010323692,100.13782104142615,0.03696775128794328
206,2017-01-31 00:05:00,2017-01-31 00:35:00,25.039682539682538,-5.7222222222222205,934.2969027851606,31.257978694356797,32.39627714386164,0.020706476715541718
207,2017-01-31 01:15:00,2017-01-31 01:25:00,25.37037037037037,-4.833333333333333,1358.3335140704942,30.31495083955213,390.42301572208123,0.04128652214691679
208,2017-01-31 02:55:00,2017-01-31 03:05:00,25.277777777777775,-4.629629629629629,897.2222219536601,30.074228010644998,1.4434021437420703,0.00034652377584883077
209,2017-01-31 03:40:00,2017-01-31 04:05:00,25.16666666666667,-4.2592592592592595,1655.5720880913386,29.648545886786202,136.06752565739512,0.022173969037434838
210,2017-01-31 04:40:00,2017-01-31 05:00:00,25.066666666666666,-3.3333333333333335,1598.1302876556033,28.57798518699721,200.68871203799065,0.027387862526105863
211,2017-01-31 05:25:00,2017-01-31 05:40:00,25.15277777777778,-3.3750000000000004,885.6921279754894,28.769802558272975,81.79220369918797,0.02788999503398186
212,2017-01-31 20:30:00,2017-01-31 20:45:00,23.499999999999996,-2.4444444444444438,896.5411752465723,26.161883169004362,221.5553696486518,0.0670515864068045
213,2017-01-31 20:55:00,2017-01-31 21:15:00,22.977777777777778,-2.5333333333333337,996.7465221722899,25.767693744817326,162.29115110723947,0.05120700356955856
214,2017-01-31 23:10:00,2017-01-31 23:30:00,25.077777777777776,-2.8888888888888884,1145.4596796864826,28.21135097179113,160.8993719143964,0.04212362871829444
215,2017-02-01 00:00:00,2017-02-01 00:30:00,24.833333333333336,-2.976190476190476,1844.2196192951817,28.03622337180134,75.2125527764588,0.011121022067610613
216,2017-02-01 01:25:00,2017-02-01 01:50:00,24.703703703703706,-3.361111111111111,959.256987337765,28.431789856710036,124.77466463825854,0.05787802463298416
217,2017-02-01 05:40:00,2017-02-01 05:55:00,25.666666666666668,-0.8888888888888897,1495.0015643786796,26.688925569441896,325.39720062916103,0.036216390302744476
218,2017-02-01 21:20:00,2017-02-01 22:00:00,24.512345679012345,-1.3086419753086416,680.9256799211834,26.585847669019465,65.57029536191412,0.08794954526387785
219,2017-02-01 23:10:00,2017-02-02 00:05:00,24.50462962962963,-1.2777777777777777,706.6087660439812,26.79758259140049,37.94216608513947,0.06465667641899125
220,2017-02-02 00:30:00,2017-02-02 00:40:00,23.555555555555554,-2.1111111111111116,659.2856940337174,25.861565424404407,161.51267016636788,0.06165626623929649
221,2017-02-02 01:00:00,2017-02-02 01:10:00,22.98148148148148,-2.2777777777777786,757.222153825949,25.426230291495852,144.18248750686806,0.04105240618691409
222,2017-02-02 04:40:00,2017-02-02 05:00:00,24.833333333333336,-3.5888888888888886,774.7061409020187,28.79027781659036,43.640291741366475,0.02541816487328912
223,2017-02-02 05:40:00,2017-02-02 05:50:00,24.703703703703706,-3.444444444444444,1013.6665638279079,28.287105034387974,118.53239891897022,0.02098023992854621
224,2017-02-02 21:10:00,2017-02-02 21:35:00,25.074074074074073,-5.537037037037037,1149.5162785095652,30.944944399523063,187.29905652322503,0.06594014839231695
225,2017-02-02 23:45:00,2017-02-03 00:05:00,25.133333333333333,-5.7555555555555555,1158.340682626056,31.156127741711746,111.48032708030956,0.031521355510423864
226,2017-02-03 01:15:00,2017-02-03 01:40:00,24.851851851851848,-6.583333333333333,1766.687701370497,31.65801988243367,208.2534755361601,0.03183246126159903
227,2017-02-03 03:00:00,2017-02-03 03:25:00,24.953703703703706,-6.666666666666667,1117.8862453768663,31.974993867918805,123.63682335260013,0.04754808315338421
228,2017-02-03 21:00:00,2017-02-03 21:25:00,24.222222222222225,-7.888888888888888,1580.4737912270275,32.3656131312317,125.93407831082929,0.024577309641805923
229,2017-02-03 22:15:00,2017-02-03 22:30:00,24.458333333333336,-7.236111111111112,1358.8125992309483,31.869596795689468,172.20608400708082,0.027694778927654085
230,2017-02-04 00:20:00,2017-02-04 00:35:00,24.930555555555554,-6.527777777777778,2177.1166557564675,31.56678766332526,288.52375647962555,0.017930099213391493
231,2017-02-04 02:20:00,2017-02-04 02:35:00,24.77777777777778,-5.972222222222221,864.2237610936229,31.01736991188554,141.87326860272955,0.05477124878838949
232,2017-02-04 03:50:00,2017-02-04 04:10:00,24.555555555555557,-6.01111111111111,1099.0060171668886,30.845426734141544,148.26159300575935,0.04609135328465595
233,2017-02-04 05:30:00,2017-02-04 05:40:00,24.62962962962963,-6.4444444444444455,372.11106150058237,31.492530265765623,98.62027406937449,0.14322378808892317
234,2017-02-04 20:20:00,2017-02-04 20:35:00,24.76388888888889,-3.7777777777777777,1027.9042342957455,28.750254669140354,159.96283894691155,0.04050299051882879
235,2017-02-04 21:40:00,2017-02-04 22:10:00,24.738095238095237,-3.7539682539682535,1025.3092377155062,28.91058317408145,121.81713632673059,0.059849678326122396
236,2017-02-04 23:15:00,2017-02-04 23:40:00,24.65740740740741,-2.416666666666666,1002.0931383918627,27.412911745316695,134.82687294121828,0.05527446136134685
237,2017-02-05 01:00:00,2017-02-05 01:20:00,24.755555555555556,-1.3888888888888888,711.9796382503733,26.512933615308096,80.03363517430844,0.05078625963385788
238,2017-02-05 02:25:00,2017-02-05 02:40:00,24.638888888888886,-0.8611111111111105,424.2700239927039,25.95252550263571,82.08843773210137,0.1093063331350162
239,2017-02-05 03:45:00,2017-02-05 04:05:00,24.644444444444446,-1.4111111111111114,807.4239148395927,26.37924891676757,113.22619120940624,0.05564734154630022
240,2017-02-05 05:30:00,2017-02-05 05:45:00,24.51388888888889,-1.4444444444444453,803.8820633012589,26.201015907147347,224.89874911158302,0.0847259372648489
241,2017-02-05 21:15:00,2017-02-05 21:35:00,24.855555555555558,-1.2777777777777772,1070.0085981136174,26.378137483101952,195.56207733643726,0.054837992834801744
242,2017-02-05 22:30:00,2017-02-05 22:40:00,24.59259259259259,-1.7777777777777775,526.4814398212468,26.621201304614985,167.141351596045,0.10283037545133744
243,2017-02-05 23:45:00,2017-02-06 00:05:00,24.911111111111108,-2.8777777777777778,1668.3374039008572,27.95570449628606,171.63829679492093,0.021029163854369943
244,2017-02-06 01:25:00,2017-02-06 01:40:00,24.986111111111114,-2.5138888888888884,466.42404903469276,27.943759161968504,68.84754823732258,0.08176821095514898
245,2017-02-06 03:45:00,2017-02-06 04:05:00,25.03333333333333,-3.4666666666666663,1026.2093574786359,28.778395618040545,123.4669646326619,0.04105407019480862
246,2017-02-06 20:00:00,2017-02-06 20:15:00,24.097222222222225,0.944444444444446,831.5014813909659,23.36202727454427,285.9203476794437,0.0897889882991769
247,2017-02-06 23:10:00,2017-02-06 23:40:00,24.785714285714285,1.0555555555555547,674.4668396522493,24.261168331881393,103.4880448182179,0.09813348257664378
248,2017-02-06 23:50:00,2017-02-07 00:00:00,24.074074074074076,1.0555555555555547,1380.555595664697,23.10193548321851,264.140847618371,0.02060672799311422
249,2017-02-07 01:55:00,2017-02-07 02:05:00,24.851851851851848,1.518518518518519,839.6666549092098,23.472414325887446,95.47724204367682,0.020420292151933018
250,2017-02-07 03:55:00,2017-02-07 04:10:00,24.819444444444446,0.944444444444446,1264.5614787058653,24.016786652880462,130.3489112268722,0.018234789530759285
251,2017-02-07 04:35:00,2017-02-07 04:55:00,24.81111111111111,0.6111111111111119,1675.7740983542744,24.344625933373262,129.78049265015798,0.013724445775677836
252,2017-02-07 05:20:00,2017-02-07 05:35:00,24.791666666666668,0.8888888888888896,1655.5784762437504,24.01116949949265,222.12990091308575,0.018143299175035713
253,2017-02-07 22:15:00,2017-02-07 23:00:00,24.561111111111114,0.81111111111111,671.2640178677806,24.55394105952429,35.80728530966405,0.051068980482547134
254,2017-02-07 23:10:00,2017-02-07 23:20:00,23.64814814814815,1.2777777777777761,1005.8332629342418,22.48166506559164,288.67649357950256,0.041243634942125504
255,2017-02-08 00:20:00,2017-02-08 00:30:00,25.222222222222225,3.574074074074075,1948.3333305299418,21.703727404811136,1.4433821831909754,5.316062491309363e-05
256,2017-02-08 00:50:00,2017-02-08 01:10:00,24.88888888888889,3.744444444444445,1003.4262468547249,21.35569114048747,192.39529387939885,0.04964596767049677
257,2017-02-08 01:55:00,2017-02-08 02:05:00,24.648148148148152,4.407407407407407,1214.9999051168684,20.324092923826065,235.3806760749609,0.020849226310967958
258,2017-02-08 03:50:00,2017-02-08 04:10:00,24.711111111111112,3.0111111111111106,1628.3364296200075,21.83346913313672,158.21552400373776,0.015890792339869425
259,2017-02-08 05:15:00,2017-02-08 05:25:00,24.38888888888889,2.944444444444443,481.2498798443593,21.667623697958632,206.42114413245002,0.1236198884463199
260,2017-02-08 20:45:00,2017-02-08 21:25:00,25.88888888888889,-4.962962962962963,903.6847247310048,31.539057797972493,112.62344700574809,0.10218837693305616
261,2017-02-08 21:40:00,2017-02-08 21:55:00,24.791666666666668,-5.444444444444445,603.6173384926547,30.612825998685985,114.52442030826263,0.08920785968053228
262,2017-02-08 23:10:00,2017-02-08 23:35:00,24.009259259259256,-6.111111111111111,634.9562658844262,30.716421458126106,84.83604323476959,0.09661629140803504
263,2017-02-09 00:45:00,2017-02-09 01:00:00,24.930555555555554,-6.791666666666668,1680.001928271946,31.86397936340161,172.67477317107657,0.01817712568589557
264,2017-02-09 02:55:00,2017-02-09 03:15:00,25.78888888888889,-8.355555555555554,1024.0089426181091,34.47869451272337,103.7208297516176,0.04149674096260617
265,2017-02-09 04:40:00,2017-02-09 04:50:00,25.925925925925927,-10.0,1293.666731208762,36.06486816584157,150.86327443816643,0.02092050191966823
266,2017-02-09 21:50:00,2017-02-09 22:25:00,24.92361111111111,-6.874999999999998,723.0011262688993,32.57359315697246,57.327630751364836,0.07363200543224933
267,2017-02-10 05:10:00,2017-02-10 05:20:00,24.98148148148148,-6.611111111111111,710.4166428548224,31.815203839480468,101.03963262189062,0.04088295007071978
268,2017-02-10 20:45:00,2017-02-10 21:20:00,24.854166666666664,-2.7986111111111116,1208.029964260951,28.05502046812895,87.96216031105811,0.03506251900598956
269,2017-02-10 22:30:00,2017-02-10 22:55:00,24.759259259259256,-1.388888888888889,978.7417523513877,26.483231058044773,122.57558592528795,0.05088208947698182
270,2017-02-11 00:10:00,2017-02-11 00:25:00,24.791666666666668,-0.8333333333333334,697.9583527957963,25.90100960530964,99.74521428499179,0.04922676308454337
271,2017-02-11 01:40:00,2017-02-11 01:55:00,25.01388888888889,-0.9444444444444441,934.1048448312029,26.16712498067507,144.01767105410164,0.040168321443297704
272,2017-02-11 03:10:00,2017-02-11 03:25:00,24.88888888888889,-0.7222222222222227,676.7696432119078,25.8956284789663,127.24422421013244,0.06676193826014618
273,2017-02-11 04:40:00,2017-02-11 04:50:00,25.0,-1.2222222222222219,674.999960938581,26.416699453931567,168.64368652139387,0.06274205740777335
274,2017-02-11 20:00:00,2017-02-11 20:15:00,24.48611111111111,2.000000000000001,878.5899798149735,22.67842355748259,181.3715258545293,0.04953991121806655
275,2017-02-11 21:15:00,2017-02-11 21:25:00,24.407407407407405,2.055555555555557,445.7407941824016,22.603039612717055,198.1563922622251,0.1442052382554759
276,2017-02-11 22:45:00,2017-02-11 23:05:00,25.044444444444444,2.011111111111112,592.7291755067544,23.423562301175124,64.85396335010478,0.05236005706284349
277,2017-02-12 00:05:00,2017-02-12 00:20:00,24.972222222222225,1.555555555555554,555.6645832102589,23.733673535093583,102.96148282619889,0.07331624355721482
278,2017-02-12 01:30:00,2017-02-12 01:50:00,24.77777777777778,0.0,928.3425230136311,25.04539671485345,108.1455049876642,0.038214755924358336
279,2017-02-12 03:10:00,2017-02-12 03:25:00,25.01388888888889,-0.6666666666666663,1214.8699403140347,25.83931094562321,330.36523175715996,0.05386610567746142
280,2017-02-12 04:35:00,2017-02-12 04:50:00,24.86111111111111,-2.000000000000001,929.0409956018141,27.07834362121568,122.24077288433452,0.03566629148905869
281,2017-02-12 20:55:00,2017-02-12 21:20:00,25.592592592592595,1.3148148148148135,913.3617937642938,24.611248183088943,198.18527150060862,0.08773805252214553
282,2017-02-12 23:35:00,2017-02-13 00:10:00,24.67361111111111,-0.5416666666666665,1658.4247904705564,25.4821550462291,113.05132510973812,0.021769428145558708
283,2017-02-13 02:10:00,2017-02-13 02:30:00,25.25555555555556,-1.5000000000000007,1503.127425089705,26.93384982651485,323.59626109823677,0.04703524999924669
284,2017-02-13 03:35:00,2017-02-13 03:55:00,25.077777777777776,-0.8888888888888896,1060.4602050845813,26.212103355454293,190.82349649818406,0.05413161135044775
285,2017-02-13 05:10:00,2017-02-13 05:25:00,25.125,-1.7777777777777775,1272.7644465227456,27.061514030703645,346.19616763145433,0.05387251672605243
286,2017-02-14 00:20:00,2017-02-14 00:50:00,25.380952380952376,-3.3015873015873014,1364.2585745472707,28.998865048591718,46.06598394653284,0.012851585048402659
287,2017-02-14 02:45:00,2017-02-14 02:55:00,25.240740740740744,-2.4444444444444438,1660.5556573832926,27.768588073474813,318.0262533961801,0.020623201898822194
288,2017-02-14 04:10:00,2017-02-14 04:20:00,25.185185185185187,-3.944444444444445,1747.2220174219879,29.213029081462068,334.70496725312995,0.02062722513204014
289,2017-02-14 21:35:00,2017-02-14 21:50:00,24.708333333333332,2.944444444444443,478.48292636589974,22.10620912727648,62.192326631973465,0.05554163118493754
290,2017-02-14 23:15:00,2017-02-14 23:30:00,23.555555555555554,1.9305555555555562,1215.1580653122667,21.758652552214933,261.3824046570819,0.0358695534770489
291,2017-02-15 00:35:00,2017-02-15 01:00:00,25.111111111111114,1.796296296296295,1531.2914666780175,23.50554842361813,140.8975697768664,0.02127009094124378
292,2017-02-15 02:10:00,2017-02-15 02:20:00,25.09259259259259,1.4444444444444453,531.6666328313072,23.87088929699841,75.24124182279739,0.040705699523884496
293,2017-02-15 03:25:00,2017-02-15 03:40:00,25.055555555555554,1.4583333333333321,758.4874114275992,23.831064112360224,76.6415491456841,0.029487051160453075
294,2017-02-15 21:55:00,2017-02-15 22:20:00,24.722222222222225,-4.657407407407406,771.8965504798648,29.857447643091543,56.933934998350466,0.042744291895302426
295,2017-02-15 23:10:00,2017-02-15 23:20:00,24.555555555555554,-4.666666666666666,526.0000001175073,29.50043589906047,1.443451983089001,0.0009858960103132342
296,2017-02-16 02:15:00,2017-02-16 02:35:00,25.922222222222224,-5.7444444444444445,1239.3536973260352,31.922690300055073,54.75106575439834,0.01386125967961304
297,2017-02-16 04:30:00,2017-02-16 04:40:00,25.907407407407405,-7.5,2003.8889709150503,33.49079838680847,384.0995108080839,0.020637089549468062
298,2017-02-16 05:45:00,2017-02-16 05:55:00,25.90740740740741,-8.0,1526.6666670380494,34.018518353285764,442.3828913812402,0.04157142826710061
299,2017-02-16 22:50:00,2017-02-16 23:10:00,25.566666666666666,-6.533333333333334,1700.885860906577,32.28900227614274,253.67146417818464,0.034539353147177765
300,2017-02-17 00:25:00,2017-02-17 00:50:00,25.388888888888886,-6.490740740740741,2093.3556813133346,32.07029445579697,191.93719008157558,0.02118345698303992
301,2017-02-17 01:10:00,2017-02-17 01:25:00,24.625,-6.388888888888889,404.1032548867455,31.591843441311035,39.041850159172526,0.06971245661399911
302,2017-02-17 02:55:00,2017-02-17 03:20:00,25.462962962962962,-6.166666666666667,1558.5491923360812,31.883850106728204,225.4357855652901,0.044567331282889665
303,2017-02-17 04:30:00,2017-02-17 04:50:00,25.255555555555556,-6.0,1221.5276993793093,31.511949815588,199.28871247827328,0.051264855505452595
304,2017-02-17 20:15:00,2017-02-17 20:30:00,24.583333333333332,-0.2638888888888882,557.5675407183944,25.18243824885501,130.3185024453882,0.09779433496825893
305,2017-02-17 21:25:00,2017-02-17 21:40:00,24.75,0.5277777777777779,1211.114932902852,24.372427531175006,190.3204355813308,0.029450326412968172
306,2017-02-17 23:05:00,2017-02-17 23:25:00,24.799999999999997,0.4999999999999992,377.09419881618714,24.948635905721112,42.524737022367056,0.08975514532724474
307,2017-02-18 00:50:00,2017-02-18 01:00:00,24.759259259259256,0.3888888888888878,1462.7775148890642,24.45371939649728,283.0643353285413,0.02082466964639964
308,2017-02-18 02:45:00,2017-02-18 02:55:00,24.407407407407405,-1.0000000000000004,570.833375401599,25.630275112043385,163.11105589170077,0.08223476589260335
309,2017-02-18 04:40:00,2017-02-18 04:55:00,24.805555555555554,-0.777777777777777,886.3487365360762,25.800217114798656,119.64501953707278,0.03653219231417847
310,2017-02-18 20:15:00,2017-02-18 20:25:00,23.796296296296294,8.944444444444445,890.5555299276585,14.935314665044617,169.84166573990112,0.020552923271394397
311,2017-02-18 22:05:00,2017-02-18 22:30:00,25.89814814814814,7.842592592592593,327.7978831900684,18.75098837393575,29.618499243984566,0.07633539444580277
312,2017-02-18 22:40:00,2017-02-18 22:50:00,25.11111111111111,8.166666666666668,508.33333303160526,17.111381650038638,1.4434574215598337,0.0006121354190225835
313,2017-02-18 23:25:00,2017-02-18 23:35:00,25.555555555555557,7.685185185185186,1608.3333323008746,17.925954621758024,1.4433829468012844,6.440566039707149e-05
314,2017-02-18 23:55:00,2017-02-19 00:10:00,25.34722222222222,7.194444444444444,1257.5017909002572,18.261187858638053,169.09346892174358,0.018188055923342297
315,2017-02-19 01:10:00,2017-02-19 01:20:00,25.5,6.555555555555554,426.25000043390935,19.167096027640767,1.4434912721018531,0.0009737117950912045
316,2017-02-19 02:10:00,2017-02-19 02:20:00,25.055555555555554,5.0,451.25000061591305,20.27818361748425,1.4434793913576807,0.0009196504460053436
317,2017-02-19 03:25:00,2017-02-19 03:35:00,26.0,5.796296296296298,1818.3333356233472,20.25928465003541,1.4433816659996035,5.6963410830612385e-05
318,2017-02-19 04:15:00,2017-02-19 04:25:00,25.59259259259259,7.11111111111111,474.0475252875155,18.676751601494875,193.57464707136276,0.1029723741859432
319,2017-02-19 05:30:00,2017-02-19 05:40:00,25.81481481481482,4.222222222222223,970.8333442378101,21.70389387708096,278.57371703148624,0.041237667898108774
320,2017-02-19 20:00:00,2017-02-19 20:15:00,24.930555555555554,6.166666666666668,993.9739925540415,18.905707915029936,102.7813930908227,0.018298336944268197
321,2017-02-19 22:05:00,2017-02-19 22:20:00,25.40277777777778,4.777777777777779,884.4091896406978,20.800233334626366,112.44350679955753,0.027800857575134175
322,2017-02-19 23:55:00,2017-02-20 00:20:00,25.75,2.962962962962962,696.5154020935631,23.197931526491427,38.5944783534999,0.027617706251458107
323,2017-02-20 01:10:00,2017-02-20 01:25:00,25.361111111111114,3.6666666666666674,573.6823028205879,21.978882948914897,56.95821672501072,0.035248394119002824
324,2017-02-20 01:40:00,2017-02-20 01:55:00,24.75,3.0555555555555554,573.6823210089559,21.97888293991664,56.958228254351475,0.03524839055402556
325,2017-02-20 02:10:00,2017-02-20 02:20:00,24.259259259259256,2.8888888888888906,549.7619327561712,21.565022786486285,46.809818146865055,0.02140198040038581
326,2017-02-20 20:45:00,2017-02-20 20:55:00,26.09259259259259,1.1666666666666674,747.2222070285051,25.09290100137121,142.25808319277863,0.041047622047794864
327,2017-02-20 21:15:00,2017-02-20 21:30:00,25.555555555555557,1.1666666666666674,547.755286228266,24.723834337245155,84.87957340332935,0.06478491254394414
328,2017-02-20 21:40:00,2017-02-20 22:05:00,24.722222222222225,1.1851851851851862,769.8222923199818,23.920863373769194,133.42105696280896,0.08068169433229073
329,2017-02-20 22:15:00,2017-02-20 22:25:00,24.185185185185187,1.2222222222222239,826.3333381545713,23.10204703805757,93.93774951820103,0.020415699972960614
330,2017-02-20 23:30:00,2017-02-20 23:40:00,25.444444444444443,1.5555555555555542,2150.000000354963,23.944465927517477,1.4433783720101747,4.817191395095535e-05
331,2017-02-20 23:50:00,2017-02-21 00:05:00,25.23611111111111,1.555555555555554,1640.1937670270304,23.78894782895705,220.0803673918411,0.018144626774004306
332,2017-02-21 03:00:00,2017-02-21 03:15:00,26.680555555555557,1.555555555555554,837.8742040165179,25.350345122817483,55.22442759972955,0.018534093028314214
333,2017-02-21 03:55:00,2017-02-21 04:10:00,26.59722222222222,1.5694444444444429,1072.1465251747306,25.20312596144807,134.0830476010613,0.027362111778885083
334,2017-02-21 05:30:00,2017-02-21 05:45:00,26.680555555555557,1.6111111111111103,1074.8847690099387,25.244636727246093,136.43831894406236,0.027746947817721645
335,2017-02-21 21:05:00,2017-02-21 21:30:00,25.518518518518515,3.388888888888889,571.5147810131466,22.61645034303771,50.95577301489234,0.05266654415595001
336,2017-02-21 22:35:00,2017-02-21 22:45:00,25.722222222222225,2.944444444444443,2050.0000009063333,22.833355861787776,1.4433793659934384,5.052290803586189e-05
337,2017-02-21 23:20:00,2017-02-22 00:20:00,25.482905982905983,3.316239316239317,1153.3669963151183,22.74782222679965,109.71547615486129,0.06536307184662586
338,2017-02-22 02:00:00,2017-02-22 02:15:00,26.47222222222222,3.2222222222222205,2092.5013935147413,23.333399533448794,1.5811471274531188,7.86156608064951e-05
339,2017-02-22 03:25:00,2017-02-22 04:00:00,26.27777777777778,3.5555555555555545,1563.6476994548677,22.977336753649073,151.9295310582859,0.02966351064857191
340,2017-02-22 05:25:00,2017-02-22 05:35:00,25.944444444444443,3.4999999999999982,576.4285831927967,22.639408143460283,141.0141950328131,0.06159038517324561
341,2017-02-22 20:00:00,2017-02-22 20:35:00,25.27777777777778,4.833333333333335,637.4855173417982,21.010052556576664,56.95963151440046,0.06057648893934126
342,2017-02-22 21:50:00,2017-02-22 22:05:00,25.944444444444446,5.305555555555555,1162.1891789739518,20.772269268599047,253.34310958429668,0.03627724133293645
343,2017-02-22 23:05:00,2017-02-22 23:15:00,25.87037037037037,5.222222222222221,531.1904966454006,20.842807746141478,45.27770662142276,0.021426403024811247
344,2017-02-22 23:35:00,2017-02-22 23:50:00,25.388888888888893,5.055555555555556,415.46234661151374,20.701851460766452,31.245570767648214,0.03460066441107858
345,2017-02-23 01:10:00,2017-02-23 01:25:00,25.583333333333332,6.500000000000002,659.8111820714604,19.300795462215337,86.37271996206883,0.035527871077420906
346,2017-02-23 02:20:00,2017-02-23 02:40:00,25.655555555555555,7.044444444444444,799.7677168174768,18.844543932539597,182.06659443195628,0.06514637872776607
347,2017-02-23 03:15:00,2017-02-23 03:25:00,25.777777777777782,7.333333333333335,1659.9999989280104,18.50002780538854,1.4433825941166378,6.239986661823174e-05
348,2017-02-23 03:50:00,2017-02-23 04:15:00,25.518518518518515,7.074074074074075,1210.2862858488054,18.635464407144614,67.9908672546052,0.01300835166519894
349,2017-02-23 05:05:00,2017-02-23 05:20:00,25.486111111111114,8.333333333333334,467.5057318191211,17.428924993503113,23.089875253510176,0.017025622302370636
350,2017-02-23 21:05:00,2017-02-23 21:25:00,25.1,6.666666666666667,500.77157054534587,18.803250074721397,101.32154490435042,0.09180723257844405
351,2017-02-23 21:35:00,2017-02-23 21:45:00,24.62962962962963,6.0555555555555545,668.3334016087691,18.713204015208255,75.69415541355,0.020347315406219674
352,2017-02-23 23:10:00,2017-02-23 23:55:00,25.666666666666668,5.522222222222223,605.7745487079023,20.90085770851293,32.276701488650545,0.04801130651909136
353,2017-02-24 00:55:00,2017-02-24 01:15:00,25.68888888888889,5.1,807.1830433281392,20.84474802409526,134.6744073749694,0.05233279126328115
354,2017-02-24 02:00:00,2017-02-24 02:15:00,25.694444444444446,4.666666666666666,1051.3931715543304,21.17801409849036,165.2199202845756,0.029458591828017643
355,2017-02-24 03:40:00,2017-02-24 03:50:00,25.703703703703706,4.500000000000001,424.2592800150287,21.45408006164854,28.67479035167681,0.021853274889112255
356,2017-02-24 04:50:00,2017-02-24 05:05:00,25.875,4.361111111111112,1139.5617643046007,21.65568860303695,117.61380231320561,0.01826037754168315
357,2017-02-24 20:05:00,2017-02-24 20:15:00,26.203703703703706,4.61111111111111,970.8330011832562,21.703893916172003,278.5737149905967,0.04123768527264202
358,2017-02-24 21:05:00,2017-02-24 21:25:00,26.544444444444444,4.000000000000002,1016.0065849161684,22.766882162008358,157.073854991271,0.0421499252949991
359,2017-02-24 22:50:00,2017-02-24 23:20:00,26.43650793650794,2.865079365079365,654.1514880958189,24.115365441071823,75.76031760844874,0.07588055221390984
360,2017-02-24 23:30:00,2017-02-25 00:05:00,25.32638888888889,2.9999999999999996,709.8130406276712,22.880683574602106,82.72675729963825,0.07741462330859471
361,2017-02-25 01:10:00,2017-02-25 01:30:00,25.400000000000002,3.0444444444444443,743.5266453091606,22.65722888278531,120.17231725921407,0.059778414124126066
362,2017-02-25 01:40:00,2017-02-25 01:55:00,24.625,2.999999999999999,719.7266698044149,21.85086406394801,126.08962924116415,0.04938174834534275
363,2017-02-25 03:50:00,2017-02-25 04:10:00,26.655555555555555,3.01111111111111,1330.6279597289094,23.822471498359665,167.24922349555104,0.027422028366373044
364,2017-02-25 05:15:00,2017-02-25 05:30:00,26.73611111111111,4.000000000000001,818.1054356672155,22.944967343610152,126.0492951669101,0.040156496974486276
365,2017-02-25 20:35:00,2017-02-25 20:50:00,24.958333333333332,-0.5555555555555556,559.3354278567095,25.857009634855476,69.36430771991067,0.053111181081378515
366,2017-02-25 22:00:00,2017-02-25 22:20:00,24.677777777777777,-1.1111111111111112,703.4982278597896,26.156766446700562,77.14152802371413,0.049459267206773336
367,2017-02-25 23:05:00,2017-02-25 23:20:00,24.402777777777775,-1.2777777777777781,562.9939542626339,26.02366690528745,69.82787760172894,0.053117002702110415
368,2017-02-26 01:00:00,2017-02-26 02:00:00,24.927350427350426,-2.012820512820512,2164.782013656181,27.31509311081753,89.41156767036166,0.018282414984112403
369,2017-02-26 03:15:00,2017-02-26 03:50:00,25.819444444444446,-2.7638888888888893,1832.9778855488482,28.856970888869135,135.09961016662626,0.024131321073267032
370,2017-02-26 20:50:00,2017-02-26 21:10:00,26.455555555555556,1.255555555555555,1889.1694346442,25.333568085006988,180.26587919856155,0.01561630775686828
371,2017-02-26 21:20:00,2017-02-26 21:40:00,25.488888888888887,1.5111111111111106,405.3942917483107,24.572846950710296,69.08165683366481,0.12441723431321441
372,2017-02-26 23:20:00,2017-02-26 23:35:00,26.388888888888886,2.6944444444444455,1331.563993049683,23.82806917074573,286.58474058557914,0.03588136250283854
373,2017-02-26 23:45:00,2017-02-27 00:15:00,25.849206349206348,2.5555555555555567,685.3707886763062,23.80655090253448,104.37778133915094,0.09407780421654921
374,2017-02-27 02:25:00,2017-02-27 02:40:00,26.736111111111114,3.402777777777777,1234.7084904889025,23.475257816417823,124.30081394182984,0.017826621937500304
375,2017-02-27 02:50:00,2017-02-27 03:40:00,25.661616161616163,3.5606060606060597,639.957493721336,22.974443592718977,42.94015472703695,0.06965736515846328
376,2017-02-27 04:55:00,2017-02-27 05:20:00,25.481481481481485,3.462962962962964,569.7346814776415,22.504421892142837,52.40541000907622,0.05423107909161936
377,2017-02-27 20:10:00,2017-02-27 20:25:00,25.11111111111111,5.444444444444443,803.6383205718195,19.850585269322337,153.63557150689928,0.043877289156478774
378,2017-02-27 20:45:00,2017-02-27 21:00:00,24.86111111111111,5.208333333333333,1768.7516505892802,19.736189390522195,1.5811515843541981,9.302270026343877e-05
379,2017-02-27 21:10:00,2017-02-27 21:25:00,24.444444444444446,5.0,1092.5018194696972,19.57813275782684,234.82740352398076,0.03585438312982091
380,2017-02-27 23:05:00,2017-02-27 23:55:00,25.055555555555554,3.94949494949495,733.1197600275733,21.833129502984356,43.66329113534934,0.05144044341947343
381,2017-02-28 01:20:00,2017-02-28 01:50:00,26.158730158730158,2.84920634920635,1399.7699416077344,23.56005220294744,156.1154100068595,0.03361805103451902
382,2017-02-28 02:55:00,2017-02-28 03:05:00,26.240740740740744,2.9629629629629632,1396.1111237645034,23.361193814526963,267.1341635671887,0.020607817637995098
383,2017-02-28 03:20:00,2017-02-28 03:30:00,25.98148148148148,2.7962962962962954,835.0000116493142,23.324156465849263,97.90226067601922,0.02103932919762657
384,2017-02-28 04:50:00,2017-02-28 05:05:00,25.944444444444443,2.6944444444444455,872.7123716998457,23.450188505322746,127.5379276374815,0.03650640125848712
385,2017-02-28 21:05:00,2017-02-28 21:25:00,24.522222222222222,7.277777777777777,552.8701042178567,17.557750360543704,77.12907805871211,0.05360475616988505
386,2017-02-28 22:10:00,2017-02-28 22:20:00,24.222222222222225,7.777777777777778,590.9999821698935,16.58376218747924,202.95112367339323,0.06177876748846948
387,2017-02-28 23:20:00,2017-02-28 23:30:00,25.185185185185187,6.981481481481481,1091.6666715945032,18.287142734584982,208.54455159626093,0.020580858962481463
