,start_time,end_time,T_in_mean,T_out_mean,tau,T0,tau_variance,T0_variance
0,2017-01-04 20:05:00,2017-01-04 20:40:00,24.680555555555557,-7.597222222222221,517.2118728844133,33.3804061488532,36.68907189174598,0.09380710031376864
1,2017-01-04 20:50:00,2017-01-04 21:00:00,22.944444444444446,-7.722222222222222,460.0000004027285,31.000597307067185,1.4434755715774414,0.0013531802896018168
2,2017-01-04 22:05:00,2017-01-04 22:55:00,26.12626262626263,-7.550505050505051,398.84671540398773,35.82699829072662,17.868438282732818,0.11474485717399173
3,2017-01-05 01:05:00,2017-01-05 01:15:00,22.055555555555554,-7.5555555555555545,760.7143208766234,29.80594952681556,186.61472040312228,0.06171731627272543
4,2017-01-05 02:05:00,2017-01-05 03:00:00,25.02314814814815,-6.9259259259259265,408.8748679306426,34.14135459335362,14.833838484058184,0.09459055843452795
5,2017-01-05 03:30:00,2017-01-05 03:40:00,24.90740740740741,-6.666666666666667,314.81471504649886,32.07684328255943,99.25748325380525,0.20472430625209492
6,2017-01-05 20:30:00,2017-01-05 20:40:00,25.555555555555557,-8.722222222222221,293.0951622711069,34.864158916306934,70.91965629570717,0.18324546741616837
7,2017-01-05 21:50:00,2017-01-05 22:00:00,22.925925925925927,-9.055555555555555,639.8148209368633,32.23173228882928,42.50154277758878,0.021465724583759446
8,2017-01-05 22:45:00,2017-01-05 22:55:00,24.944444444444443,-9.944444444444445,284.54535903334977,35.503704950782826,87.9016895594395,0.24529770657535976
9,2017-01-05 23:05:00,2017-01-05 23:15:00,23.592592592592595,-10.0,377.70831671727916,34.03824924484416,25.804191478587768,0.039318849981241334
10,2017-01-06 00:20:00,2017-01-06 00:50:00,26.634920634920633,-10.722222222222223,336.7083896059024,39.04179821360839,29.05856949842623,0.17542647772843287
11,2017-01-06 01:20:00,2017-01-06 01:55:00,25.819444444444443,-10.944444444444443,547.3190470649835,37.950062848276495,33.25664353128821,0.08642741162538232
12,2017-01-06 03:50:00,2017-01-06 04:00:00,22.48148148148148,-10.888888888888891,856.9046516346166,33.5652727017637,351.4576259833386,0.10321862735811553
13,2017-01-06 04:30:00,2017-01-06 04:40:00,25.0,-11.888888888888891,389.7058172832561,37.36317484093371,117.419589359119,0.1845488186198623
14,2017-01-06 05:35:00,2017-01-06 05:45:00,22.61111111111111,-11.944444444444445,776.2497680454576,34.778372326478,334.1485846180264,0.12385114410200779
15,2017-01-06 23:00:00,2017-01-06 23:10:00,24.0,-10.888888888888891,417.6665883744434,35.30737257072726,142.9120995752395,0.18491771117375708
16,2017-01-07 05:20:00,2017-01-07 05:30:00,21.666666666666668,-11.907407407407407,862.6189507685963,33.76886614523719,211.82882218728358,0.061764180311011455
17,2017-01-07 20:05:00,2017-01-07 20:40:00,24.5625,-10.5,535.5287276107217,36.2189111250328,35.523951063163665,0.09199088187157273
18,2017-01-07 22:50:00,2017-01-07 23:00:00,22.555555555555557,-10.814814814814815,599.6668436294528,33.648993427705726,205.9529253515494,0.12356720974231897
19,2017-01-07 23:40:00,2017-01-08 00:10:00,24.555555555555554,-10.936507936507937,424.0807071053392,36.75964250605039,51.765838344397494,0.18657789875797437
20,2017-01-08 01:20:00,2017-01-08 01:55:00,25.805555555555554,-10.847222222222221,445.5123919217451,38.10857337575836,24.355986172258035,0.09549658602913652
21,2017-01-08 04:35:00,2017-01-08 04:45:00,21.814814814814813,-8.5,778.3332997974533,30.50976319746094,319.03657141337857,0.10318790882215942
22,2017-01-08 20:05:00,2017-01-08 20:15:00,22.537037037037038,-10.888888888888891,546.2120990969385,33.73236653315292,141.71155663244696,0.10266558127095551
23,2017-01-08 21:15:00,2017-01-08 21:50:00,25.694444444444446,-11.395833333333334,355.5288093577771,38.941396624924444,22.735453988325958,0.1421529521163595
24,2017-01-08 22:45:00,2017-01-08 23:40:00,26.91666666666666,-10.249999999999998,494.32036618589865,39.269036790114626,22.640165920042687,0.11439378924782082
25,2017-01-09 20:50:00,2017-01-09 21:00:00,22.18518518518519,-2.833333333333334,264.2156087027385,25.493424592356067,61.22491220575402,0.14212824627636517
26,2017-01-09 21:45:00,2017-01-09 22:05:00,24.15555555555556,-2.7888888888888888,217.4545759217283,28.19748471326085,27.834934774587758,0.1970164701476935
27,2017-01-09 22:55:00,2017-01-09 23:40:00,26.3,-1.9111111111111108,378.6529365471893,29.91680922688333,23.588954017559214,0.1268295332144404
28,2017-01-11 20:05:00,2017-01-11 20:20:00,23.208333333333332,4.777777777777779,426.095278713867,18.756225294232202,58.33070209888458,0.05565714612992911
29,2017-01-11 21:10:00,2017-01-11 21:25:00,25.90277777777778,4.500000000000001,244.4807145675247,22.063779220213913,45.56076192583675,0.15385508913751317
30,2017-01-13 20:20:00,2017-01-13 20:30:00,22.092592592592595,-5.5740740740740735,261.1402040477538,28.198040317579316,85.543551313109,0.2248269653943451
31,2017-01-13 21:15:00,2017-01-13 21:25:00,25.611111111111114,-5.722222222222222,281.4999439767665,31.89148816556563,47.23990858313025,0.12097102389004546
32,2017-01-14 21:20:00,2017-01-14 21:30:00,22.87037037037037,-3.8703703703703702,686.42851387635,26.935756348657453,281.1435537433794,0.10314303725196801
33,2017-01-15 20:05:00,2017-01-15 20:50:00,27.094444444444445,-1.361111111111111,238.24005506146327,31.217173427890476,11.51893759078761,0.1597701886328467
34,2017-01-15 21:45:00,2017-01-15 22:15:00,28.809523809523814,-1.396825396825397,315.6229660357625,31.66079718083031,41.894086920612764,0.23297482164349959
35,2017-01-15 22:35:00,2017-01-15 22:55:00,26.2,-1.3333333333333326,197.27562725954144,28.946456209305293,33.04349511285064,0.2907659461197084
36,2017-01-17 23:00:00,2017-01-17 23:25:00,25.85185185185185,1.5000000000000016,433.74392406980354,25.059029910768768,93.85541997207305,0.18576040484224002
37,2017-01-29 20:45:00,2017-01-29 20:55:00,23.018518518518515,-5.0,559.0740242166851,28.269466626045205,249.04407455123518,0.14435307074877737
38,2017-01-29 21:50:00,2017-01-29 22:20:00,26.785714285714285,-5.555555555555556,282.63541124101215,34.08276205771275,18.957672598547955,0.14102249148929552
39,2017-01-30 21:15:00,2017-01-30 21:25:00,22.61111111111111,-5.777777777777776,391.92293384347414,28.751818953454382,154.7697030661612,0.18508863057694033
40,2017-02-03 03:50:00,2017-02-03 04:05:00,25.98611111111111,-7.638888888888888,341.27444305851475,34.36754408609869,71.1406488365886,0.19326904674904227
41,2017-02-03 20:40:00,2017-02-03 21:05:00,25.5,-7.888888888888888,567.7335572389997,34.128332302515624,94.01224543719302,0.1485735908442301
42,2017-02-03 22:00:00,2017-02-03 22:10:00,22.31481481481482,-7.5,243.33324895137233,30.429492602095365,49.53377518543216,0.16160616695606012
43,2017-02-03 22:55:00,2017-02-03 23:05:00,25.61111111111111,-6.481481481481482,320.92592720131773,32.593870718338884,1.4435802011881838,0.0029120255176594573
44,2017-02-04 20:40:00,2017-02-04 21:05:00,25.351851851851848,-3.777777777777778,555.5082193028545,29.789030576099403,112.24114211109944,0.1616661750691673
45,2017-02-04 21:45:00,2017-02-04 21:55:00,23.037037037037038,-3.7777777777777772,438.03029118732053,27.121472476133444,113.32356746349744,0.10245316280303014
46,2017-02-04 22:35:00,2017-02-04 23:05:00,25.619047619047617,-2.650793650793651,617.1783009229757,28.961550686998553,101.76165445382803,0.13739122326813566
47,2017-02-05 04:30:00,2017-02-05 04:40:00,21.777777777777782,-1.0555555555555547,409.999971937842,23.112344921105972,140.25659079468815,0.12326066291087205
48,2017-02-05 05:20:00,2017-02-05 05:35:00,25.52777777777778,-1.3055555555555565,228.79214476316966,27.71929022410404,45.271847093686425,0.2189695994543944
49,2017-02-05 20:05:00,2017-02-05 20:20:00,25.875000000000004,-0.7222222222222227,329.1556682014417,27.206303659775934,72.02658655261676,0.16642144443366308
50,2017-02-05 21:10:00,2017-02-05 21:20:00,24.703703703703706,-1.0555555555555547,288.95826352255034,26.206241266984218,81.75082181774549,0.16332451095242623
51,2017-02-07 22:15:00,2017-02-07 22:25:00,23.14814814814815,0.7222222222222207,335.27774695656666,22.76117725134603,127.19968629914784,0.16426502299719192
52,2017-02-08 20:50:00,2017-02-08 21:20:00,27.357142857142858,-4.992063492063493,251.33366335657192,34.3114499079929,17.47858728774409,0.16482106139662203
53,2017-02-08 22:25:00,2017-02-08 22:35:00,25.888888888888886,-5.685185185185186,246.44918994528587,32.216764368173614,54.10533881642562,0.18223364078674675
54,2017-02-10 22:00:00,2017-02-10 22:10:00,22.574074074074076,-1.3888888888888886,226.4033980741131,24.49406658663314,46.601365855133324,0.1411971928965809
55,2017-02-10 22:55:00,2017-02-10 23:05:00,25.888888888888886,-1.314814814814815,244.83333504228085,27.761111644312916,1.4437267000033096,0.004245103130072103
56,2017-02-11 22:00:00,2017-02-11 22:10:00,22.962962962962962,1.9444444444444444,629.4444339146806,21.185697895180695,240.4155917864768,0.08245393171531945
57,2017-02-11 22:55:00,2017-02-11 23:05:00,25.87037037037037,1.981481481481482,148.33336520394636,24.69850765938307,4.401388705278337,0.031025371814315816
58,2017-02-13 21:00:00,2017-02-13 21:10:00,22.01851851851852,-2.888888888888888,298.7777701670524,25.325371307093572,10.054757340371022,0.018165588749020318
59,2017-02-13 21:55:00,2017-02-13 22:05:00,25.870370370370367,-3.3333333333333335,276.7543992613715,29.732875229331633,9.858302629606216,0.024344211052864828
60,2017-02-16 20:30:00,2017-02-16 20:40:00,22.574074074074073,-5.888888888888889,426.3888997732553,28.797373554395428,80.51591931568231,0.08154971695980738
61,2017-02-20 22:40:00,2017-02-20 22:50:00,23.814814814814813,1.5555555555555542,199.1664079942229,22.820321489714324,78.62144593373796,0.28606511803854007
62,2017-02-23 22:30:00,2017-02-23 23:05:00,22.805555555555557,5.972222222222221,202.7964271483786,18.321344886474936,20.040478364083313,0.17697580734814183
63,2017-11-04 21:15:00,2017-11-04 21:30:00,23.27777777777777,7.958333333333334,4141.191249378686,15.384260100334442,10837.22032492303,0.20285269150462126
64,2017-11-04 21:30:00,2017-11-04 21:50:00,23.133333333333333,7.583333333333333,2816.9980761594175,15.674495067409163,5138.648066454806,0.26967852147167487
65,2017-11-04 21:50:00,2017-11-04 22:05:00,22.953703703703706,7.537037037037037,502.99362974342404,15.802323249329696,373.17432383498186,0.3472427684810375
66,2017-11-07 21:30:00,2017-11-07 21:40:00,21.27777777777778,4.2777777777777795,276.81799744902077,17.307959441261392,128.70756877574016,0.18493876723993521
67,2017-11-10 04:30:00,2017-11-10 04:40:00,22.444444444444446,-4.944444444444444,491.9999551990308,27.667696009306507,168.65909251647653,0.12342236749273872
68,2017-11-10 05:20:00,2017-11-10 05:50:00,25.26984126984127,-6.047619047619047,695.3693640403183,31.997062845272044,123.71144556668901,0.1456156874900948
69,2017-11-10 23:15:00,2017-11-10 23:25:00,22.5,-7.888888888888889,547.000000231667,30.66708598514426,1.4434460496210397,0.0009479787434547122
70,2017-11-11 00:10:00,2017-11-11 00:35:00,25.35185185185185,-8.092592592592593,315.6461314416398,34.782820808769195,51.202199120101554,0.2637433886604083
71,2017-11-11 01:10:00,2017-11-11 01:35:00,25.564814814814813,-8.518518518518519,368.80316317921705,35.24894732178315,69.60407289066244,0.2671442355470735
72,2017-11-11 03:40:00,2017-11-11 04:20:00,26.000000000000004,-8.833333333333334,383.3304010183333,36.67811328407265,23.21883368989593,0.13370301346808308
73,2017-11-13 05:45:00,2017-11-13 05:55:00,22.333333333333332,2.3888888888888875,357.9999428315148,20.223633877649146,122.24587986770342,0.12311948553524132
74,2017-11-14 02:20:00,2017-11-14 02:50:00,26.11111111111111,3.4206349206349205,376.14948672753087,23.60531808946954,52.848417481455996,0.15502737263686517
75,2017-11-14 23:10:00,2017-11-14 23:20:00,23.574074074074076,3.1666666666666683,182.3329961450234,20.969476135578592,82.21293903156932,0.3273404534127199
76,2017-11-15 23:45:00,2017-11-15 23:55:00,22.759259259259256,7.88888888888889,222.77773888473413,15.205336688631778,19.975232949428587,0.03879105555816004
77,2017-11-16 00:45:00,2017-11-16 01:05:00,25.866666666666667,8.222222222222223,237.5598800462897,18.394905908848372,28.56121457456431,0.11079888993719586
78,2017-11-18 05:00:00,2017-11-18 05:10:00,22.40740740740741,5.277777777777778,307.6666165908665,17.408747813937353,69.47092823591315,0.08139543484238851
79,2017-11-19 02:00:00,2017-11-19 02:10:00,22.88888888888889,2.055555555555557,311.6665860426296,21.168432509740043,88.30477823471517,0.12262049891579273
80,2017-11-19 03:45:00,2017-11-19 03:55:00,23.203703703703706,1.7777777777777795,274.5237096596975,21.817318807103312,88.8373832498428,0.16358054432558186
81,2017-11-19 05:15:00,2017-11-19 05:55:00,27.413580246913583,2.111111111111111,334.33581959292627,26.842309108183866,20.856080663049195,0.11499491256710345
82,2017-11-20 00:25:00,2017-11-20 00:35:00,23.296296296296294,0.20370370370370264,295.7141505194437,23.48412000225468,120.04653898724804,0.20527581234439535
83,2017-11-20 02:55:00,2017-11-20 03:05:00,26.259259259259263,0.12962962962963018,151.12882190018098,26.99868287581753,29.42433496922512,0.21853184659667388
84,2017-11-20 04:30:00,2017-11-20 04:40:00,22.14814814814815,0.22222222222222143,328.611086542563,22.260372771270234,30.156147218972936,0.039637397675639965
85,2017-11-21 01:00:00,2017-11-21 01:15:00,26.416666666666664,5.7222222222222205,131.3356564544709,21.890807537774773,17.654655904319362,0.20095864221941587
86,2017-11-21 04:25:00,2017-11-21 04:35:00,22.314814814814813,5.833333333333333,424.0476279693805,16.6761945858786,36.44192278376834,0.021609150732021718
87,2017-11-21 05:20:00,2017-11-21 05:45:00,25.287037037037038,5.925925925925925,271.0305860114401,20.264993303117137,48.66464739359666,0.19723368391577356
88,2017-11-22 22:55:00,2017-11-22 23:05:00,22.740740740740744,-0.6851851851851851,842.9999746167649,23.565006164530864,95.86218630516515,0.02042141798086792
89,2017-11-22 23:50:00,2017-11-23 00:00:00,25.925925925925924,-0.38888888888888856,205.1447607302299,26.9587080120955,55.009737474689686,0.2230065338800399
90,2017-11-23 00:25:00,2017-11-23 00:35:00,23.59259259259259,-0.3148148148148147,252.05867228050943,24.38317354190535,92.34979784204526,0.2251330240055504
91,2017-11-23 01:15:00,2017-11-23 02:00:00,25.433333333333334,-0.24444444444444452,358.9704813959213,27.31697017210421,21.754060958238483,0.11859791667458697
92,2017-11-23 05:15:00,2017-11-23 05:45:00,25.642857142857142,0.08730158730158855,459.4292400797047,26.397478263710973,71.04757341606032,0.1569483104130823
93,2017-11-25 22:55:00,2017-11-25 23:05:00,21.88888888888889,2.6666666666666665,344.99992742783826,19.501464431732916,117.74331862245212,0.12307749716056267
94,2017-11-26 00:05:00,2017-11-26 00:45:00,25.574074074074076,1.9753086419753092,306.1124608381519,25.16974195712813,21.84847897402147,0.13429151187433
95,2017-12-01 03:50:00,2017-12-01 04:00:00,24.611111111111114,4.592592592592593,179.16640932127444,20.579672095032514,60.316579506257845,0.24400006798728394
96,2017-12-02 05:10:00,2017-12-02 05:20:00,22.14814814814815,0.33333333333333415,391.3333042352242,22.094120924370475,178.71605869280154,0.16472776527965177
97,2017-12-04 00:10:00,2017-12-04 00:20:00,21.555555555555557,0.11111111111111267,183.0950663584185,22.032625463892305,43.71222337572798,0.1813674680080038
98,2017-12-04 03:15:00,2017-12-04 03:45:00,25.97619047619048,-0.3730158730158738,395.15652810357744,27.359928792007512,51.48847881888046,0.15882151617574036
99,2017-12-04 23:55:00,2017-12-05 00:05:00,22.09259259259259,8.462962962962964,203.3331017017429,13.966109432273186,76.43236553535186,0.16336466412750178
100,2017-12-05 02:25:00,2017-12-05 03:00:00,25.201388888888893,7.791666666666667,223.04502486617483,18.805931191291943,17.47403739873457,0.13159992431913534
101,2017-12-05 03:40:00,2017-12-05 03:50:00,22.537037037037035,7.833333333333333,294.25928251039943,14.954242801843822,20.336795053121318,0.022362173195590772
102,2017-12-05 04:35:00,2017-12-05 04:45:00,24.5,8.333333333333334,144.99980424344562,16.72720967974482,23.6081892627756,0.11787359162915281
103,2017-12-07 00:10:00,2017-12-07 00:20:00,22.537037037037038,0.2777777777777778,500.4166299300458,22.4820325791159,70.73108934322812,0.0406616687138663
104,2017-12-07 00:50:00,2017-12-07 01:00:00,24.925925925925924,0.3333333333333328,293.88875369995117,25.01214852304133,122.50051033629387,0.22586188173753471
105,2017-12-07 04:40:00,2017-12-07 04:50:00,22.388888888888886,-1.0555555555555547,526.2500350986702,23.667542191313657,225.90458907782855,0.1236719860558138
106,2017-12-07 05:30:00,2017-12-07 05:45:00,25.166666666666668,-1.6111111111111103,335.29152374264027,27.379709591474498,61.2696337096069,0.13734441096852731
107,2017-12-07 22:25:00,2017-12-07 22:35:00,21.777777777777782,-2.518518518518518,335.2563160888694,24.659531342578887,132.1238389832261,0.18487550194645821
108,2017-12-07 23:15:00,2017-12-07 23:25:00,25.666666666666668,-2.3888888888888893,2525.000000642074,28.111129409934303,1.443376640930632,4.101480950975435e-05
109,2017-12-07 23:35:00,2017-12-07 23:45:00,24.981481481481485,-2.1111111111111116,286.372502238302,27.566970935722647,47.11420440595788,0.10079513663503756
110,2017-12-08 02:25:00,2017-12-08 02:45:00,25.822222222222223,-2.3666666666666663,374.72743014316904,28.94613588100849,70.343002017396,0.17442081921377406
111,2017-12-08 20:55:00,2017-12-08 21:15:00,27.4,-1.5777777777777775,195.05047877768706,30.482191808120728,25.731419166080602,0.2438072692518424
112,2017-12-08 21:40:00,2017-12-08 21:55:00,24.333333333333336,-1.3888888888888888,679.7108239792983,26.006734482917963,127.8048808965266,0.06676453934675312
113,2017-12-08 22:40:00,2017-12-08 23:00:00,26.4,-1.6222222222222213,370.45374120915386,28.78370452920963,48.5572881468931,0.12247860241672032
114,2017-12-09 03:40:00,2017-12-09 04:15:00,26.020833333333332,-0.8333333333333333,388.5657585627442,28.07906594028746,24.70647462703243,0.09349501776689025
115,2017-12-09 23:10:00,2017-12-09 23:20:00,21.59259259259259,-2.1111111111111116,425.33332153518666,23.9828883442869,194.41801499758364,0.16480080363955246
116,2017-12-10 20:15:00,2017-12-10 20:30:00,25.27777777777778,-1.7916666666666674,196.81913408425976,28.1095424781318,37.84963989087827,0.24987652567649873
117,2017-12-10 21:25:00,2017-12-10 21:45:00,27.01111111111111,-2.6111111111111107,352.2598945384105,30.46907885289606,63.395385686979324,0.18702454981349542
118,2017-12-10 21:55:00,2017-12-10 22:10:00,25.0,-2.8194444444444438,567.6761517071302,28.188056910117066,121.90406956541325,0.09880072367143916
119,2017-12-10 22:50:00,2017-12-10 23:00:00,26.537037037037038,-2.555555555555555,236.96952817997297,29.708532861915835,85.26355663365068,0.2862389836701448
120,2017-12-11 00:15:00,2017-12-11 00:45:00,26.91269841269841,-3.5634920634920637,400.2195939612091,31.630279160906845,54.32263861217562,0.1889055823035754
121,2017-12-11 03:30:00,2017-12-11 03:50:00,25.98888888888889,-6.277777777777778,246.39651123359727,33.58933215489067,32.428618725014054,0.2137582666340547
122,2017-12-11 04:35:00,2017-12-11 05:00:00,27.287037037037038,-6.685185185185186,311.5699030099374,35.34958385314248,26.285031634012405,0.14117730287668853
123,2017-12-11 21:10:00,2017-12-11 21:45:00,26.243055555555557,-2.4444444444444446,549.4722581798915,29.60946766829353,83.74782086659293,0.16849524574718794
124,2017-12-12 21:10:00,2017-12-12 21:30:00,25.488888888888887,-10.366666666666667,409.7059698551862,36.736021894968374,71.44698820291366,0.18837568098343704
125,2017-12-12 22:50:00,2017-12-12 23:00:00,25.166666666666668,-11.111111111111112,325.4999641674925,36.83643609659294,110.98951397106747,0.24601631712797825
126,2017-12-13 00:50:00,2017-12-13 01:00:00,25.2037037037037,-11.518518518518519,329.3333278240127,37.28112508863171,131.210250898286,0.2875777901217714
127,2017-12-13 03:50:00,2017-12-13 04:00:00,25.722222222222225,-12.111111111111112,308.6362587824179,38.44786292829921,95.48629435862784,0.2455457477061067
128,2017-12-13 20:40:00,2017-12-13 20:50:00,27.037037037037038,-9.5,468.80945914112226,36.927398458018175,152.92427392750218,0.16443611964021415
129,2017-12-13 22:10:00,2017-12-13 22:45:00,28.17361111111111,-9.86111111111111,337.39181911703196,40.03663352086664,31.343109441212523,0.2233533716918264
130,2017-12-15 20:30:00,2017-12-15 20:45:00,25.13888888888889,-4.944444444444444,356.7895491864129,30.718637577107025,67.56075653810124,0.1502070347545434
131,2017-12-16 01:55:00,2017-12-16 02:05:00,22.240740740740744,-5.037037037037038,544.2592936084194,27.52875153531446,242.3919040067412,0.1443372499700926
132,2017-12-16 05:10:00,2017-12-16 05:20:00,24.12962962962963,-5.666666666666667,297.59255600019355,30.298293442246894,36.69885616782846,0.07995096828444605
133,2017-12-16 22:35:00,2017-12-16 22:45:00,25.35185185185185,-10.777777777777779,216.2221218169044,36.96823328519888,40.07984499455191,0.2007700679506637
134,2017-12-17 03:50:00,2017-12-17 04:00:00,25.592592592592595,-11.981481481481481,321.190372587015,38.16047876666353,95.44720260048909,0.22505377184574948
135,2017-12-17 05:25:00,2017-12-17 05:45:00,25.94444444444444,-12.411111111111111,509.4275696359282,39.112154241403005,105.640670345627,0.19243539369489887
136,2017-12-18 03:55:00,2017-12-18 04:05:00,22.537037037037038,-4.814814814814816,491.00004880124084,27.630849253964545,224.74477749741425,0.164913041791023
137,2017-12-21 20:20:00,2017-12-21 20:40:00,25.955555555555556,-2.1888888888888887,353.35772443812596,28.946537715303357,68.96479144588535,0.19210263211593
138,2017-12-21 23:35:00,2017-12-21 23:45:00,22.796296296296294,-2.166666666666666,448.66666087927894,25.241662885902432,102.02859093226392,0.08184414204504231
139,2017-12-22 00:25:00,2017-12-22 00:40:00,25.555555555555557,-1.9444444444444442,326.46182525726823,28.134972188591494,69.33820407760379,0.1684019798261766
140,2017-12-22 05:25:00,2017-12-22 05:40:00,25.708333333333332,-0.944444444444444,270.1004816836121,27.397373126639078,44.669495799105206,0.153790990268476
141,2017-12-22 22:05:00,2017-12-22 22:15:00,22.5,-4.666666666666666,697.8571049055755,27.361540430556794,171.06229194527188,0.061681584494848854
142,2017-12-24 05:05:00,2017-12-24 05:15:00,22.2962962962963,-4.222222222222223,529.0740672563256,26.76952011190082,235.57366557291024,0.14432013438216615
143,2017-12-24 20:00:00,2017-12-24 20:10:00,23.611111111111114,-2.000000000000001,921.0002663820748,25.750275610187725,317.2613126772081,0.06189883454202445
144,2017-12-25 21:50:00,2017-12-25 22:00:00,21.296296296296298,-8.75925925925926,676.6667063941736,30.277912752444372,99.17609209256872,0.04208236690943773
145,2017-12-25 22:45:00,2017-12-25 22:55:00,25.074074074074076,-9.222222222222221,307.83327318196575,34.85483118033219,87.19970032999164,0.20433392961447847
146,2017-12-25 23:05:00,2017-12-25 23:25:00,23.144444444444446,-9.722222222222221,395.4169537846868,33.703081390082055,59.625336711045506,0.15474776248511576
147,2017-12-26 00:35:00,2017-12-26 00:55:00,25.73333333333333,-10.555555555555555,340.95808127484787,37.360955052250596,50.87432510980226,0.19631179793985634
148,2017-12-26 05:20:00,2017-12-26 05:40:00,25.322222222222223,-12.777777777777779,458.75235062656697,38.935022130567425,91.19323324388574,0.2036168033326925
149,2017-12-26 20:35:00,2017-12-26 20:45:00,23.388888888888886,-14.222222222222221,677.0000023137146,37.88922828672041,1.443421943801883,0.0007656816570601681
150,2017-12-27 03:55:00,2017-12-27 04:10:00,25.805555555555557,-14.791666666666668,315.16588174824085,41.56836598296426,54.799174903115016,0.21085631235111243
151,2017-12-27 05:20:00,2017-12-27 05:40:00,25.633333333333336,-14.944444444444446,475.7970714478342,41.435079897704234,86.34636993632822,0.19083774276796686
152,2017-12-27 20:50:00,2017-12-27 21:05:00,24.833333333333336,-15.055555555555557,748.3359848677329,40.28955128716672,83.49975539558028,0.055790808260935465
153,2017-12-27 22:05:00,2017-12-27 22:40:00,26.736111111111114,-16.77777777777778,483.5578375065918,45.104913016469084,62.02752556093152,0.24480240172456436
154,2017-12-28 03:10:00,2017-12-28 03:40:00,25.976190476190478,-21.5952380952381,691.3454451476323,48.60978853492357,96.3049248594536,0.17420758422854882
155,2017-12-28 20:50:00,2017-12-28 21:10:00,23.922222222222224,-16.788888888888888,523.3025257482078,41.492768207053295,45.437025007511686,0.08324108747360326
156,2017-12-28 21:50:00,2017-12-28 22:00:00,23.574074074074073,-16.203703703703706,275.1281857161365,40.50281883368113,22.978046483511584,0.07820529079216008
157,2017-12-29 03:10:00,2017-12-29 03:40:00,25.452380952380956,-15.714285714285714,733.4024609003941,42.01341171214956,122.40943714142824,0.17019380226997127
158,2017-12-29 05:20:00,2017-12-29 05:40:00,25.711111111111116,-15.911111111111111,544.5807627112613,42.390018858766084,113.9871166110995,0.19709503694972677
159,2017-12-29 21:35:00,2017-12-29 22:25:00,27.17676767676768,-13.035353535353538,446.27471024708314,42.50233204476085,19.351653461129903,0.11822468346756683
160,2017-12-30 00:20:00,2017-12-30 00:30:00,21.888888888888886,-12.481481481481481,561.0606599879452,34.67711720047823,262.9635082670251,0.18565223269252792
161,2017-12-30 01:15:00,2017-12-30 01:40:00,26.037037037037038,-10.749999999999998,581.8492792628019,37.58186155961955,112.24550169197566,0.18603788027091478
162,2017-12-30 03:45:00,2017-12-30 03:55:00,25.759259259259256,-10.055555555555555,321.1664968257588,36.37380238368913,127.91051256183462,0.28751935537315493
163,2017-12-30 04:35:00,2017-12-30 04:45:00,23.296296296296294,-9.88888888888889,496.38884588235226,33.52000356202304,236.72582208309137,0.20620342690799298
164,2017-12-30 05:20:00,2017-12-30 05:40:00,25.71111111111111,-10.077777777777778,505.01703665232213,36.50105311693107,102.86054357850054,0.17790874238830373
165,2017-12-31 00:00:00,2017-12-31 00:20:00,23.477777777777774,-18.61111111111111,503.81512687289705,42.92839974651398,66.24048860031223,0.1353844815281585
166,2017-12-31 01:00:00,2017-12-31 01:25:00,25.212962962962965,-19.333333333333332,420.0191163160722,45.88248712148963,56.66785191520411,0.21886782785995063
167,2017-12-31 01:35:00,2017-12-31 01:45:00,22.98148148148148,-19.22222222222222,631.9443863127891,42.53805844226196,241.36629216496854,0.16491076207694771
168,2017-12-31 02:25:00,2017-12-31 02:55:00,25.119047619047617,-19.690476190476193,545.1271766276536,46.051892553061556,44.693390734603106,0.12274252845373392
169,2017-12-31 03:05:00,2017-12-31 03:15:00,22.962962962962962,-20.27777777777778,647.221982150259,43.57521443353045,309.2837666686535,0.20640022870837543
170,2017-12-31 03:55:00,2017-12-31 04:30:00,24.53472222222222,-20.82638888888889,475.51825587935525,47.04792970241597,32.910572996878386,0.1400514782303807
171,2017-12-31 05:15:00,2017-12-31 05:55:00,24.913580246913583,-21.68518518518518,589.2491441263254,48.19600420800258,43.15101637524688,0.13972394588630335
172,2017-12-31 22:50:00,2017-12-31 23:00:00,20.75925925925926,-20.259259259259256,1053.5710523264613,41.21333563536261,432.55968544954874,0.10327537402665402
173,2018-01-01 21:05:00,2018-01-01 21:15:00,23.37037037037037,-13.388888888888891,366.2961711673412,37.26214670836991,162.48540585300353,0.28809337195671925
174,2018-01-01 22:00:00,2018-01-01 22:10:00,26.944444444444443,-13.5,315.8695224299095,41.08630777313651,69.78338502485998,0.1831411105025622
175,2018-01-02 03:25:00,2018-01-02 03:40:00,26.680555555555557,-11.125,366.4100495828415,38.58288320280428,62.34375143629048,0.16513442614082793
176,2018-01-02 04:05:00,2018-01-02 04:15:00,23.98148148148148,-9.944444444444445,468.3332906450715,34.28875815260705,226.68209907561433,0.22679017559437434
177,2018-01-02 05:20:00,2018-01-02 05:30:00,24.148148148148152,-8.592592592592593,391.6665641827645,33.15958010068127,163.89078474848833,0.226336173274903
178,2018-01-03 00:00:00,2018-01-03 00:25:00,26.60185185185186,-11.888888888888888,371.77008421004825,39.79638131871388,52.41020444831427,0.22353729375997763
179,2018-01-03 01:20:00,2018-01-03 01:30:00,23.185185185185187,-12.592592592592593,714.2588597261276,36.0285207345609,318.72548919768406,0.14447909688120164
180,2018-01-03 02:10:00,2018-01-03 02:40:00,25.865079365079364,-12.404761904761907,597.8652440843325,39.23668487097618,91.35635832887813,0.1779842601765675
181,2018-01-03 02:50:00,2018-01-03 03:00:00,23.555555555555557,-12.370370370370372,379.50976586917534,36.40026686577866,114.30353240158789,0.18450042205998407
182,2018-01-03 04:05:00,2018-01-03 04:15:00,23.611111111111114,-13.111111111111109,387.9410989014056,37.1965175063068,116.88027654420637,0.18454059879853987
183,2018-01-03 04:55:00,2018-01-03 05:30:00,25.055555555555554,-12.604166666666668,375.5822958302246,39.437626516712264,23.73435456307818,0.13489025665817542
184,2018-01-03 20:10:00,2018-01-03 20:40:00,25.53174603174603,-7.650793650793651,592.0697825758767,34.029126792204,111.14267760995054,0.19146095378186342
185,2018-01-03 21:35:00,2018-01-03 21:45:00,22.703703703703706,-8.61111111111111,804.0478224804641,31.50974707527229,329.6382915470061,0.10319859580158615
186,2018-01-03 22:25:00,2018-01-03 22:40:00,25.63888888888889,-9.23611111111111,374.15004102030645,35.577172594404175,75.52234553846296,0.17696706491544167
187,2018-01-03 22:50:00,2018-01-03 23:05:00,23.791666666666664,-9.222222222222221,502.76175442156136,33.507993931140156,78.02424199604793,0.0957205692000818
188,2018-01-04 01:35:00,2018-01-04 02:10:00,26.29861111111111,-9.5,447.63770621294293,37.21366369439328,28.44029024675593,0.10787302658149332
189,2018-01-04 04:20:00,2018-01-04 04:30:00,23.203703703703706,-9.37037037037037,487.4999225141342,32.90872981720209,185.7784093607537,0.16469507836713618
190,2018-01-04 05:10:00,2018-01-04 05:40:00,25.81746031746032,-9.682539682539682,565.0909864340475,36.449262031663096,84.68276526104745,0.1713981305680856
191,2018-01-04 22:40:00,2018-01-04 23:30:00,26.944444444444446,-19.31313131313131,479.1377901048039,48.70863916468113,28.372500106142724,0.17272816065852595
192,2018-01-05 00:30:00,2018-01-05 01:25:00,26.564814814814813,-19.97222222222222,562.9982908962802,48.843563295477686,28.74693463685962,0.13983332744467808
193,2018-01-05 02:20:00,2018-01-05 02:30:00,23.0,-20.425925925925924,975.8329711794039,43.648621439930714,420.56473037670554,0.12392806346075808
194,2018-01-05 03:10:00,2018-01-05 03:55:00,25.138888888888893,-20.93333333333333,772.7467262466263,47.42524890590981,58.995648370503424,0.12295254711113528
195,2018-01-05 04:45:00,2018-01-05 04:55:00,25.592592592592595,-20.77777777777778,438.33331331332414,46.900299642941214,144.76582967869743,0.2260140201476798
196,2018-01-05 05:20:00,2018-01-05 05:30:00,23.388888888888886,-21.12962962962963,666.9443727331555,44.85268122123319,190.84698022111718,0.12347851207427005
197,2018-01-05 20:00:00,2018-01-05 20:10:00,24.12962962962963,-17.77777777777778,628.0555336287407,42.241473969907155,119.32552297449384,0.08195786116690422
198,2018-01-05 20:20:00,2018-01-05 20:30:00,23.09259259259259,-17.833333333333332,735.3332267524053,41.204519496800856,337.59042661694747,0.1651538980608818
199,2018-01-05 21:05:00,2018-01-05 21:15:00,25.64814814814815,-18.444444444444443,565.952401911242,44.48270246021424,184.97039836299726,0.16464268845656616
200,2018-01-05 21:55:00,2018-01-05 22:25:00,26.817460317460313,-18.53174603174603,410.0137525662802,47.02506759737049,53.52718447546951,0.263819465270637
201,2018-01-05 23:50:00,2018-01-06 00:00:00,23.055555555555554,-20.01851851851852,967.9165548848601,43.296773391924674,417.1362040531647,0.12392559272862741
202,2018-01-06 00:45:00,2018-01-06 00:55:00,26.12962962962963,-20.444444444444443,363.5506300816992,47.21605900902481,116.90006633199219,0.2666054227694426
203,2018-01-06 02:05:00,2018-01-06 02:15:00,22.87037037037037,-21.5,1139.7618378954237,44.56515931550573,468.1036191901433,0.10329402383348299
204,2018-01-06 02:45:00,2018-01-06 02:55:00,25.48148148148148,-22.0,448.8595929100337,48.01136065698136,148.28389700944822,0.2260549149502739
205,2018-01-06 03:35:00,2018-01-06 03:45:00,23.055555555555554,-22.055555555555557,1013.7493094531225,45.33378903872794,436.9816335497248,0.12393927190965029
206,2018-01-06 04:25:00,2018-01-06 04:55:00,25.158730158730155,-22.246031746031743,602.855902887168,48.59237280566925,52.72608047261484,0.12513665214387082
207,2018-01-06 05:05:00,2018-01-06 05:15:00,23.259259259259256,-22.555555555555557,823.3331884015772,46.093321465435004,378.23440285882805,0.16520549139572235
208,2018-01-06 20:05:00,2018-01-06 20:25:00,25.611111111111107,-18.38888888888889,495.894191536703,44.891737330488965,84.21568736479766,0.18575070222104312
209,2018-01-06 22:30:00,2018-01-06 22:40:00,25.759259259259256,-20.666666666666668,417.1665849440283,46.98346406886722,94.75472485398573,0.1635406950855168
210,2018-01-06 23:35:00,2018-01-06 23:45:00,22.925925925925924,-21.166666666666668,440.740746309145,44.593736923805245,26.821040447772702,0.039383135151428855
211,2018-01-07 00:25:00,2018-01-07 00:40:00,25.63888888888889,-20.791666666666668,580.6676253663815,47.031971609961374,95.23541715422267,0.12311361398908321
212,2018-01-07 02:55:00,2018-01-07 03:10:00,25.84722222222222,-19.944444444444443,323.9694785265174,46.85713774134044,46.25597045735635,0.1899631845935006
213,2018-01-07 04:20:00,2018-01-07 04:40:00,25.911111111111108,-16.5,546.730526045633,43.190368501154516,105.56222847618109,0.18452318965713094
214,2018-01-07 20:30:00,2018-01-07 20:40:00,26.61111111111111,-5.055555555555556,270.7141930487636,32.25329689135449,65.38328211220627,0.18298789562298193
215,2018-01-08 04:05:00,2018-01-08 04:15:00,23.5,-0.7777777777777771,364.1666678433991,24.6118634266989,1.4435343576010708,0.001710227591601228
216,2018-01-08 04:55:00,2018-01-08 05:10:00,25.84722222222222,-0.9583333333333337,221.44361048313223,27.720145722985517,39.13134798535071,0.20188391399710875
217,2018-01-09 01:15:00,2018-01-09 01:55:00,26.024691358024693,0.20370370370370264,338.83563323395856,27.371126219373057,22.449398211830044,0.12294988943923295
218,2018-01-09 05:20:00,2018-01-09 05:30:00,22.518518518518515,-0.0740740740740738,450.55544677535494,22.843767820774254,200.31823655066373,0.14421307990479829
219,2018-01-09 20:30:00,2018-01-09 20:40:00,26.296296296296294,-0.4999999999999993,253.24553686738412,27.327051945939974,52.31080958473467,0.1415956177511427
220,2018-01-09 22:25:00,2018-01-09 22:55:00,26.476190476190474,-0.5555555555555552,371.8753788692047,28.13420847107774,29.833775033051936,0.1066880972227676
221,2018-01-10 05:05:00,2018-01-10 05:15:00,22.59259259259259,-3.7777777777777772,473.3332294030493,26.649413145021654,216.58575930525927,0.16488596281626247
222,2018-01-11 00:50:00,2018-01-11 01:00:00,22.796296296296294,2.8888888888888893,397.96295087058127,20.15804042490672,24.077304137354304,0.019582381975854553
223,2018-01-11 05:35:00,2018-01-11 05:45:00,22.37037037037037,5.1111111111111125,309.33319850052067,17.538967340382666,140.84901156671435,0.16448490682583697
224,2018-01-12 20:30:00,2018-01-12 20:40:00,25.037037037037038,-9.88888888888889,232.160384835287,35.68074570684442,53.02601624584306,0.22266754292569357
225,2018-01-12 22:05:00,2018-01-12 22:45:00,24.58641975308642,-10.506172839506172,458.43681272296743,36.64304544240349,69.48305155425459,0.2809398732244983
226,2018-01-12 23:30:00,2018-01-12 23:40:00,26.037037037037038,-10.833333333333334,331.1666100171064,37.428418358103364,74.89685797636879,0.1629938132508345
227,2018-01-13 02:50:00,2018-01-13 03:00:00,23.222222222222225,-12.574074074074074,715.3703546355005,36.04677941068285,136.12817914248876,0.06154726165411016
228,2018-01-13 05:35:00,2018-01-13 05:45:00,22.90740740740741,-13.444444444444445,725.7409179700444,36.60258289663581,323.88076742270414,0.14448617853860157
229,2018-01-14 02:25:00,2018-01-14 02:40:00,26.09722222222222,-15.61111111111111,431.82131468437666,42.43551053555756,77.94770728389602,0.16386679685746053
230,2018-01-14 05:25:00,2018-01-14 05:40:00,26.15277777777778,-15.819444444444445,434.5511359218104,42.69938600131616,78.43665584697365,0.16385494901333666
231,2018-01-14 20:00:00,2018-01-14 20:15:00,22.486111111111114,-6.888888888888888,296.0510200855034,30.12328896673612,48.479462815724325,0.15302873029266922
232,2018-01-15 01:20:00,2018-01-15 01:30:00,22.703703703703706,-7.87037037037037,610.5555130616395,30.824791120826088,194.1060378230603,0.10292593289538365
233,2018-01-15 02:10:00,2018-01-15 02:40:00,25.41269841269841,-8.079365079365079,689.1698586591064,34.22543253294801,128.95440342560957,0.16527229006187516
234,2018-01-15 04:25:00,2018-01-15 04:40:00,25.875000000000004,-7.652777777777778,347.19757004298367,34.255472876117,62.79288649574935,0.1643283673362506
235,2018-01-15 20:20:00,2018-01-15 20:40:00,25.922222222222224,-5.333333333333334,542.7094635713631,31.8341178374626,132.00631746862848,0.17258985923887285
236,2018-01-16 01:15:00,2018-01-16 01:40:00,26.018518518518515,-5.222222222222221,499.6296757512685,32.02754453368452,105.18987458671663,0.2010369790526241
237,2018-01-17 20:05:00,2018-01-17 20:15:00,23.87037037037037,-6.722222222222224,324.0196194164719,31.065868076395834,12.453375349214168,0.02349139044968595
238,2018-01-17 20:45:00,2018-01-17 20:55:00,25.444444444444443,-6.277777777777778,299.21032824054487,32.25375987685455,134.3600060813209,0.30829214763233853
239,2018-01-17 22:10:00,2018-01-17 22:40:00,25.476190476190474,-6.2063492063492065,411.9602683095889,32.84778319220978,66.76680733725202,0.22772075281158788
240,2018-01-18 02:10:00,2018-01-18 02:40:00,25.785714285714285,-7.1190476190476195,544.4399706845865,33.81825479332758,84.03587588716053,0.1699021622772162
241,2018-01-18 03:45:00,2018-01-18 03:55:00,25.759259259259256,-7.5555555555555545,271.514993488977,33.930146845293045,97.9511666368923,0.28670413074580453
242,2018-01-18 05:20:00,2018-01-18 05:30:00,22.62962962962963,-7.944444444444444,610.1851825095166,30.824943070420016,271.99369665997256,0.14440166394919765
243,2018-01-18 22:20:00,2018-01-18 22:30:00,25.35185185185185,-3.351851851851851,343.66662648111816,29.122306688798535,90.95777389158272,0.14308168884230765
244,2018-01-18 23:40:00,2018-01-19 00:25:00,27.30555555555556,-3.3,310.83485206497244,32.867814663359844,22.833916896402457,0.1985818143806256
245,2018-01-19 21:20:00,2018-01-19 21:30:00,24.962962962962962,0.8518518518518521,127.45089396232818,25.062932529176262,7.209959062521665,0.06953622069993906
246,2018-01-19 22:15:00,2018-01-19 22:35:00,26.855555555555554,1.3444444444444446,288.2798999804597,26.403674217775492,49.49941471772683,0.18813402458116324
247,2018-01-20 04:05:00,2018-01-20 04:20:00,25.125,2.000000000000001,251.1330056485527,23.820143926006118,43.752085641586035,0.15126351864682677
248,2018-01-22 21:00:00,2018-01-22 21:10:00,21.925925925925924,1.1111111111111112,415.3703539280545,21.06586648526834,131.5061409404475,0.10264440604725932
249,2018-01-23 21:15:00,2018-01-23 21:50:00,27.02083333333333,-2.0347222222222223,326.24441876664866,30.637779330482513,22.475742024504243,0.13094060224375584
250,2018-01-24 03:00:00,2018-01-24 03:10:00,22.814814814814813,-4.777777777777779,550.9259114763081,27.84338683643021,174.9812478737867,0.10286117280177294
251,2018-01-24 04:00:00,2018-01-24 04:35:00,26.9375,-5.902777777777778,464.6314043525822,34.09046033789249,51.032561383117084,0.16473157757136947
252,2018-01-24 21:40:00,2018-01-24 21:50:00,25.425925925925927,-7.9444444444444455,332.4073009858668,33.87354993664287,147.27050075072015,0.2879114943665662
253,2018-01-24 22:15:00,2018-01-24 22:25:00,22.85185185185185,-8.444444444444445,468.05536677833,31.63120420447757,223.09632999175125,0.20615226373297002
254,2018-01-24 23:10:00,2018-01-24 23:35:00,25.953703703703706,-8.777777777777779,484.2146067680613,35.634232756162284,92.38672212090401,0.20905277465082334
255,2018-01-25 02:35:00,2018-01-25 03:05:00,27.238095238095237,-10.603174603174605,304.0832576685403,39.73313937400473,33.054386557168456,0.24823678156347317
256,2018-01-26 04:40:00,2018-01-26 04:50:00,25.111111111111114,-0.6111111111111119,242.36818916733358,26.254632582151135,108.46386085136395,0.30775221231243577
257,2018-01-26 20:25:00,2018-01-26 20:35:00,26.444444444444443,2.5370370370370376,204.2062127535412,24.495094957831263,48.93302756691008,0.18188620468481434
258,2018-01-26 23:15:00,2018-01-26 23:25:00,22.037037037037038,2.2777777777777786,236.5554792797186,20.17833780853099,43.99160637306929,0.1006565369656918
259,2018-01-27 00:15:00,2018-01-27 00:35:00,25.5,2.655555555555556,375.3888333554179,23.457032851832235,83.7509717079606,0.1676981958229324
260,2018-01-29 01:30:00,2018-01-29 01:40:00,22.555555555555554,-1.7777777777777775,546.2499399800486,24.55639921166288,234.5638784162196,0.12369240062844185
261,2018-01-29 02:20:00,2018-01-29 02:35:00,25.208333333333332,-1.8333333333333337,316.2170331513588,27.686380203076645,61.56351560187323,0.1567391349579122
262,2018-01-29 04:15:00,2018-01-29 04:35:00,25.47777777777778,-1.7888888888888892,362.2311501039031,28.024576040696108,70.77110820584214,0.18170534811455716
263,2018-01-29 05:00:00,2018-01-29 05:10:00,23.09259259259259,-1.7777777777777775,343.71794896287594,25.233016024771842,74.75266103758294,0.10185619681789695
264,2018-01-29 20:15:00,2018-01-29 20:35:00,25.522222222222222,-4.9111111111111105,392.73687630538393,31.21314672249398,76.27854046931154,0.18583092196843612
265,2018-01-29 21:40:00,2018-01-29 21:50:00,25.462962962962962,-5.111111111111111,288.50865450485907,31.105429872678826,112.10539842232652,0.2666565759941652
266,2018-01-29 23:15:00,2018-01-29 23:40:00,24.305555555555554,-5.888888888888888,267.5493033146707,31.62257687645713,41.85757212742339,0.2715476110894913
267,2018-01-30 00:15:00,2018-01-30 00:50:00,25.72222222222223,-6.180555555555555,423.33459603760946,33.23706330930803,32.679890720558404,0.1236117669074464
268,2018-01-30 01:15:00,2018-01-30 01:25:00,23.0,-6.611111111111111,483.18168578566844,29.91804909219584,226.17866325296453,0.185540842041624
269,2018-01-30 02:00:00,2018-01-30 02:35:00,25.71527777777778,-7.263888888888889,606.6497258303023,33.938348032173856,84.34592154407356,0.15986620114526126
270,2018-01-30 05:20:00,2018-01-30 05:40:00,24.34444444444445,-9.544444444444446,305.4317619809959,35.007424924714144,37.98322644534733,0.1707409544859745
271,2018-01-30 20:15:00,2018-01-30 20:35:00,25.12222222222222,-12.744444444444444,306.1123938716315,39.11364630795136,44.64546294160811,0.2232526930294137
272,2018-01-30 21:10:00,2018-01-30 21:35:00,26.01851851851852,-13.055555555555557,391.2878114153848,40.332918693998096,62.75620247163842,0.24515435860911108
273,2018-01-31 02:20:00,2018-01-31 02:35:00,25.47222222222222,-15.88888888888889,465.572801904442,42.02977273290391,84.75545362264687,0.1519545338115008
274,2018-01-31 05:15:00,2018-01-31 05:35:00,25.78888888888889,-13.12222222222222,516.6353879123074,39.66790778507373,109.46675501441908,0.1966713240191418
275,2018-01-31 20:15:00,2018-01-31 20:25:00,22.01851851851852,1.3333333333333326,308.88877969689423,21.020897944577406,146.5342535259385,0.20568808110178788
276,2018-01-31 21:15:00,2018-01-31 21:40:00,24.48148148148148,1.722222222222223,173.61612669049097,24.428844081995397,20.637470093567686,0.2414881579952214
277,2018-01-31 22:30:00,2018-01-31 22:50:00,26.611111111111114,2.000000000000001,327.38095576170093,25.368580633313695,78.01624143804287,0.22153565863296132
278,2018-02-01 20:15:00,2018-02-01 20:25:00,22.018518518518515,-5.5555555555555545,329.44430715397533,27.99360094163087,162.71240001601842,0.26760011057176225
279,2018-02-01 21:10:00,2018-02-01 21:35:00,25.657407407407405,-7.407407407407407,559.2059622923109,33.808313442143714,107.53089670672563,0.17347964048575634
280,2018-02-01 23:05:00,2018-02-01 23:35:00,25.761904761904763,-7.992063492063492,667.2118185315841,34.5175451236568,113.96081009467956,0.15708706046088525
281,2018-02-02 00:15:00,2018-02-02 00:25:00,22.277777777777782,-8.666666666666666,308.3332165767471,31.4475708009125,116.83260154794343,0.24621649100197304
282,2018-02-02 01:10:00,2018-02-02 01:35:00,25.87037037037037,-9.314814814814815,573.3222708414255,35.956768688070326,101.99895290483904,0.1665585898893082
283,2018-02-02 03:20:00,2018-02-02 03:35:00,25.888888888888893,-9.666666666666668,381.20329566564,36.258125743198875,72.43512358074027,0.16668395976674072
284,2018-02-03 02:05:00,2018-02-03 02:35:00,26.79365079365079,-8.761904761904763,464.0044681765783,36.715263696356395,63.72983870180234,0.19200933314476135
285,2018-02-03 04:15:00,2018-02-03 04:35:00,26.0,-9.033333333333333,433.3769206652042,35.84635698668724,86.26936672056522,0.19854523825224404
286,2018-02-03 20:20:00,2018-02-03 20:35:00,25.77777777777778,-2.2222222222222223,394.0764572619616,28.535126201344276,98.1762888419832,0.16644295002696508
287,2018-02-04 00:25:00,2018-02-04 00:35:00,25.48148148148148,-0.9259259259259266,278.52929156970964,26.882839979318856,102.23571422705382,0.22538381918961173
288,2018-02-04 03:10:00,2018-02-04 03:35:00,25.88888888888889,-1.2592592592592593,433.8506686326602,27.93632453033614,78.40410648557035,0.1729137750403973
289,2018-02-04 20:15:00,2018-02-04 20:35:00,25.788888888888884,-6.433333333333333,529.0178997328483,32.834187303951175,131.0387990678053,0.18591330871979253
290,2018-02-05 05:30:00,2018-02-05 05:55:00,26.990740740740737,-12.611111111111112,504.9687496911045,40.58858637668516,72.14354334050452,0.17109146690841914
291,2018-02-05 21:05:00,2018-02-05 21:35:00,26.190476190476186,-6.928571428571428,530.8544651849147,34.062203936799875,86.29032827770772,0.18474523003242427
292,2018-02-05 23:00:00,2018-02-05 23:35:00,25.645833333333336,-7.375,488.87279311722216,34.214964710886974,95.42668007915627,0.2795816761706386
293,2018-02-06 00:25:00,2018-02-06 00:35:00,25.40740740740741,-7.518518518518518,328.3332475870324,33.4285820913437,103.59254904792152,0.20482045412189148
294,2018-02-06 01:25:00,2018-02-06 01:35:00,25.925925925925924,-8.111111111111109,290.8729546298837,34.6237585491457,86.28069157110184,0.22477080733670146
295,2018-02-06 02:00:00,2018-02-06 02:10:00,23.444444444444443,-8.333333333333334,407.8570709449648,32.16813120603225,99.3110014943076,0.12274671860076566
296,2018-02-06 03:40:00,2018-02-06 03:50:00,25.962962962962962,-8.61111111111111,295.31739885149045,35.16105770794831,103.76218560151284,0.26636300067018986
297,2018-02-06 20:20:00,2018-02-06 20:50:00,24.71428571428572,-9.396825396825395,364.5391096063305,35.53063083126345,33.42529070396416,0.15701508887888865
298,2018-02-06 21:00:00,2018-02-06 21:10:00,22.277777777777775,-10.277777777777779,389.66658406472226,32.97416887982829,133.21386092003272,0.18481497861638993
299,2018-02-06 22:25:00,2018-02-06 22:50:00,26.5,-11.203703703703704,377.6223852468906,38.962674943736125,45.83829875115695,0.18558763596097874
300,2018-02-07 00:20:00,2018-02-07 00:35:00,26.13888888888889,-11.972222222222221,390.01275536034956,38.8470973315936,76.87802343612495,0.1811263349193149
301,2018-02-07 02:15:00,2018-02-07 02:35:00,26.044444444444444,-11.311111111111112,488.6427221666603,38.12392731874045,97.10338335105317,0.1872879168568538
302,2018-02-07 05:10:00,2018-02-07 05:50:00,26.623456790123456,-7.790123456790123,384.5367004752338,36.230430837041375,26.706618519476248,0.1509734800529524
303,2018-02-07 20:25:00,2018-02-07 20:35:00,24.62962962962963,-7.092592592592592,183.81711392499614,32.58888607327355,22.4858847665005,0.1369272218236415
304,2018-02-07 21:10:00,2018-02-07 21:20:00,25.740740740740744,-8.0,263.11582308831316,34.38389475172124,84.13607706388485,0.26562302094527007
305,2018-02-07 22:40:00,2018-02-07 22:50:00,25.37037037037037,-8.833333333333334,291.8253091475039,34.7913633273787,134.3541207554158,0.34942669038756563
306,2018-02-07 23:45:00,2018-02-07 23:55:00,23.259259259259263,-9.944444444444445,664.2592666369295,33.45394536752681,44.069561161338626,0.021437673422503512
307,2018-02-08 00:50:00,2018-02-08 01:20:00,27.0952380952381,-11.000000000000002,345.7366334870004,39.767847782551556,39.19184720217938,0.22874680299003006
308,2018-02-08 02:55:00,2018-02-08 03:50:00,26.444444444444443,-12.671296296296298,505.9997090825877,41.2764644295843,23.53707102743844,0.11939137158110151
309,2018-02-08 04:40:00,2018-02-08 04:50:00,25.222222222222218,-11.944444444444445,350.78939121312635,37.69765526538167,157.87661918097695,0.308629272057856
310,2018-02-08 20:00:00,2018-02-08 20:10:00,22.222222222222225,-7.722222222222222,316.1764278875932,30.41920588590201,94.94872567741056,0.1841295227142621
311,2018-02-08 21:00:00,2018-02-08 21:50:00,26.010101010101007,-8.333333333333332,447.446502697119,36.294314711278865,26.53143850927098,0.13770085724647965
312,2018-02-09 02:00:00,2018-02-09 02:35:00,25.937500000000004,-8.88888888888889,622.2383437912744,35.813715837640395,83.99773851739845,0.15976291146579757
313,2018-02-09 04:00:00,2018-02-09 04:20:00,24.944444444444443,-8.555555555555555,382.748011217415,34.38093340339692,73.01226797093977,0.20619166183299603
314,2018-02-09 05:20:00,2018-02-09 05:50:00,25.349206349206348,-8.603174603174605,384.7703181748308,35.29019153393265,33.88486915215659,0.14210154544744008
315,2018-02-09 21:10:00,2018-02-09 21:50:00,26.98148148148148,-6.277777777777778,342.4504866233532,35.23447172482114,19.305197879691292,0.1332973674876134
316,2018-02-10 02:15:00,2018-02-10 02:50:00,25.305555555555557,-5.972222222222222,449.33494158743736,32.509397465045,35.697163001050356,0.11740090672461753
317,2018-02-10 05:10:00,2018-02-10 05:55:00,24.96111111111111,-5.977777777777779,413.7354068319762,32.64842933737873,29.338176269782284,0.14462872440961533
318,2018-02-10 20:25:00,2018-02-10 20:35:00,25.40740740740741,-4.62962962962963,256.42842935782625,30.624568479782496,89.8670525739476,0.2659352892314076
319,2018-02-10 22:20:00,2018-02-10 22:35:00,24.986111111111114,-5.0,252.33327861903777,30.88317889661212,52.01799052996707,0.23097444662670996
320,2018-02-11 01:00:00,2018-02-11 01:10:00,22.85185185185185,-5.611111111111112,639.5833683029756,28.685761605731674,182.95573547987092,0.08229760104193522
321,2018-02-11 02:00:00,2018-02-11 02:50:00,26.43434343434343,-5.83838383838384,432.06278194624866,34.17233977071297,23.512375159140632,0.12307766537694387
322,2018-02-11 05:20:00,2018-02-11 05:35:00,25.986111111111114,-5.305555555555555,309.60347683770743,32.05372601655806,55.810917577284236,0.17154865240146555
323,2018-02-11 20:40:00,2018-02-11 20:50:00,24.314814814814813,-1.722222222222223,211.51485009291392,26.65485903309317,108.83351225903702,0.41060063311423933
324,2018-02-11 21:30:00,2018-02-11 21:40:00,22.5,-2.2222222222222223,554.9999566003703,24.94527485397795,238.35240709449113,0.12370085599930407
325,2018-02-11 22:25:00,2018-02-11 22:35:00,25.981481481481485,-2.5925925925925926,269.7367445987316,29.10533423414916,88.42165507642679,0.22492083000385937
326,2018-02-12 20:15:00,2018-02-12 20:35:00,25.18888888888889,-5.611111111111112,471.29245549545857,31.456975121660157,111.60888052423572,0.19084072950376657
327,2018-02-12 21:45:00,2018-02-12 21:55:00,22.666666666666668,-7.222222222222222,671.2499363723917,30.111798256252253,288.6858821555085,0.12379221599368237
328,2018-02-13 01:15:00,2018-02-13 01:35:00,25.622222222222224,-9.11111111111111,468.0061062149996,35.47943753944582,103.37861687748425,0.20216132164854989
329,2018-02-13 02:50:00,2018-02-13 03:05:00,26.361111111111114,-10.61111111111111,313.93069410972737,37.86014533135818,58.68264753015677,0.20726379871818795
330,2018-02-13 05:20:00,2018-02-13 05:50:00,25.436507936507933,-11.72222222222222,445.27384183589555,38.42212155443544,42.42688377920318,0.14513511104606885
331,2018-02-13 22:40:00,2018-02-13 22:50:00,24.87037037037037,-2.2222222222222223,303.3331712282358,27.54036877338101,151.09167966202466,0.288065166274375
332,2018-02-14 00:05:00,2018-02-14 00:35:00,25.587301587301585,-2.222222222222222,486.0012354103498,28.67518696414508,81.74867066050746,0.17550317798499407
333,2018-02-15 02:10:00,2018-02-15 02:50:00,26.320987654320987,2.777777777777778,282.14576677937663,25.246249564049798,17.857577466364063,0.12914721135371454
334,2018-02-15 20:05:00,2018-02-15 20:35:00,25.72222222222222,4.825396825396825,317.6280607586441,21.89658004287794,46.533056568926376,0.17674745518952004
335,2018-02-15 20:45:00,2018-02-15 20:55:00,23.37037037037037,4.388888888888888,261.41004256751796,19.345663630805802,125.61485090921138,0.22602248695107416
336,2018-02-15 21:50:00,2018-02-15 22:20:00,26.023809523809526,5.0,172.70224423181477,22.89288086986667,17.226290313391416,0.22549585578965126
337,2018-02-16 22:20:00,2018-02-16 22:35:00,24.388888888888886,-5.0,413.60706288934784,29.923932200187938,103.01887468446839,0.16637342714585301
338,2018-02-17 00:15:00,2018-02-17 00:50:00,27.05555555555555,-5.6111111111111125,319.2231210623205,34.48521546226081,24.439282795404353,0.1672626010075745
339,2018-02-17 20:55:00,2018-02-17 21:30:00,27.13888888888889,-1.111111111111111,303.84172960512865,29.903748812633207,34.411438355666505,0.22503025148213993
340,2018-02-17 21:40:00,2018-02-17 21:50:00,24.037037037037038,-1.1111111111111112,451.33341338115497,25.42725213242197,206.42541971388022,0.1648491581248205
341,2018-02-17 22:20:00,2018-02-17 22:30:00,25.51851851851852,-1.1111111111111112,136.9047528865739,27.607890356487694,0.8155686465872912,0.007526102691343808
342,2018-02-17 23:05:00,2018-02-17 23:15:00,26.37037037037037,-1.1111111111111112,234.68241197194354,28.06900424425349,69.29281308921388,0.22405139757417866
343,2018-02-24 22:15:00,2018-02-24 22:55:00,27.339506172839506,2.0370370370370368,182.45525351977525,28.16299925139864,10.135047996162397,0.19079505732797647
344,2018-02-25 00:25:00,2018-02-25 00:45:00,27.088888888888892,2.7777777777777777,399.20550960554357,24.92389393166738,91.91733679701026,0.1731101520218083
345,2018-02-25 03:10:00,2018-02-25 03:20:00,23.537037037037035,1.1111111111111112,673.8889858190346,22.592522687063983,261.2636620605474,0.08340105322770805
346,2018-02-25 04:05:00,2018-02-25 04:45:00,26.043209876543216,1.6666666666666665,384.2090209524641,25.66460092743719,27.682915853975288,0.11104085664587934
347,2018-02-25 20:20:00,2018-02-25 20:45:00,28.046296296296294,5.740740740740741,127.59789117465202,24.546792278112363,13.533660583933775,0.2894026433099787
348,2018-02-25 21:55:00,2018-02-25 22:45:00,28.232323232323232,3.7121212121212124,262.8448243288119,26.918292755483577,10.623401952573278,0.11571673796411598
349,2018-02-25 23:55:00,2018-02-26 00:30:00,27.083333333333336,3.2777777777777777,277.4052266134255,25.334405211731667,49.276902125668215,0.3263760408789979
350,2018-02-26 01:00:00,2018-02-26 01:15:00,25.208333333333336,2.7777777777777777,194.948902038782,23.30067973243773,40.17555358553973,0.22403436683044545
351,2018-02-28 01:10:00,2018-02-28 01:20:00,23.259259259259256,7.777777777777778,695.8333043388546,15.592857613232992,199.19371649857422,0.041169878238861854
352,2018-02-28 01:30:00,2018-02-28 01:40:00,22.759259259259256,7.222222222222222,200.2381995831573,15.926583163016412,34.57058796958506,0.08685953937025892
